hardware/parallel_NTT/parallel_NTT.sim/sim_ntt/impl/timing/modelsim/simulate.log
# //  ModelSim SE-64 10.5 Feb 13 2016 
# //
# //  Copyright 1991-2016 Mentor Graphics Corporation
# //  All Rights Reserved.
# //
# //  ModelSim SE-64 and its associated documentation contain trade
# //  secrets and commercial or financial information that are the property of
# //  Mentor Graphics Corporation and are privileged, confidential,
# //  and exempt from disclosure under the Freedom of Information Act,
# //  5 U.S.C. Section 552. Furthermore, this information
# //  is prohibited from disclosure under the Trade Secrets Act,
# //  18 U.S.C. Section 1905.
# //
# do {parallel_ntt_0_butterfly_tb_simulate.do}
# vsim -voptargs=""+acc"" "+transport_int_delays" "+pulse_e/0" "+pulse_int_e/0" "+pulse_r/0" "+pulse_int_r/0" -L xil_defaultlib -L simprims_ver -L secureip -lib xil_defaultlib xil_defaultlib.parallel_ntt_0_butterfly_tb xil_defaultlib.glbl 
# Start time: 17:27:46 on Nov 18,2021
# ** Note: (vsim-3812) Design is being optimized...
# Loading work.parallel_ntt_0_butterfly_tb(fast)
# Loading work.parallel_ntt_0_wrapper(fast)
# Loading simprims_ver.OBUF(fast)
# Loading simprims_ver.BUFGCE(fast)
# Loading work.IBUF_UNIQ_BASE_(fast)
# Loading simprims_ver.IBUFCTRL(fast)
# Loading simprims_ver.INBUF(fast)
# Loading work.IBUF_HD449(fast)
# Loading work.IBUF_HD450(fast)
# Loading work.parallel_ntt_0(fast)
# Loading work.parallel_ntt_0_parallel_ntt_v1_0(fast)
# Loading simprims_ver.VCC(fast)
# Loading simprims_ver.LUT1(fast)
# Loading simprims_ver.CARRY8(fast)
# Loading work.parallel_ntt_0_parallel_NTT_top(fast)
# Loading work.parallel_ntt_0_NTT_processor(fast)
# Loading work.parallel_ntt_0_Barret_reduce__xdcDup__1(fast)
# Loading simprims_ver.LUT5(fast)
# Loading simprims_ver.LUT5(fast__1)
# Loading simprims_ver.LUT2(fast)
# Loading simprims_ver.LUT6(fast)
# Loading simprims_ver.LUT6(fast__1)
# Loading simprims_ver.LUT6(fast__2)
# Loading simprims_ver.LUT6(fast__3)
# Loading simprims_ver.LUT6(fast__4)
# Loading simprims_ver.LUT4(fast)
# Loading simprims_ver.LUT2(fast__1)
# Loading simprims_ver.LUT4(fast__1)
# Loading simprims_ver.LUT4(fast__2)
# Loading simprims_ver.LUT4(fast__3)
# Loading simprims_ver.LUT6(fast__5)
# Loading simprims_ver.LUT6(fast__6)
# Loading simprims_ver.LUT6(fast__7)
# Loading simprims_ver.LUT5(fast__2)
# Loading simprims_ver.LUT5(fast__3)
# Loading simprims_ver.LUT4(fast__4)
# Loading simprims_ver.LUT6(fast__8)
# Loading simprims_ver.LUT5(fast__4)
# Loading simprims_ver.LUT4(fast__5)
# Loading simprims_ver.LUT3(fast)
# Loading simprims_ver.LUT2(fast__2)
# Loading simprims_ver.LUT4(fast__6)
# Loading simprims_ver.LUT4(fast__7)
# Loading simprims_ver.LUT6(fast__9)
# Loading simprims_ver.SRL16E(fast)
# Loading simprims_ver.FDRE(fast)
# Loading simprims_ver.LUT2(fast__3)
# Loading simprims_ver.FDRE(fast__1)
# Loading simprims_ver.LUT5(fast__5)
# Loading simprims_ver.LUT6(fast__10)
# Loading simprims_ver.LUT6(fast__11)
# Loading simprims_ver.LUT6(fast__12)
# Loading simprims_ver.LUT5(fast__6)
# Loading simprims_ver.LUT4(fast__8)
# Loading simprims_ver.LUT6(fast__13)
# Loading simprims_ver.LUT6(fast__14)
# Loading simprims_ver.LUT4(fast__9)
# Loading work.parallel_ntt_0_mult_gen_32x32__5(fast)
# Loading work.parallel_ntt_0_mult_gen_v12_0_14__5(fast)
# Loading simprims_ver.DSP_ALU(fast)
# Loading simprims_ver.DSP_A_B_DATA(fast)
# Loading simprims_ver.DSP_C_DATA(fast)
# Loading simprims_ver.DSP_MULTIPLIER(fast)
# Loading simprims_ver.DSP_M_DATA(fast)
# Loading simprims_ver.DSP_OUTPUT(fast)
# Loading simprims_ver.DSP_PREADD_DATA(fast)
# Loading simprims_ver.DSP_PREADD(fast)
# Loading simprims_ver.DSP_ALU(fast__1)
# Loading simprims_ver.DSP_A_B_DATA(fast__1)
# Loading simprims_ver.DSP_A_B_DATA(fast__2)
# Loading simprims_ver.DSP_MULTIPLIER(fast__1)
# Loading simprims_ver.DSP_PREADD_DATA(fast__1)
# Loading simprims_ver.GND(fast)
# Loading work.parallel_ntt_0_mult_gen_64x33__4(fast)
# Loading work.parallel_ntt_0_mult_gen_v12_0_14__parameterized1__4(fast)
# Loading simprims_ver.DSP_A_B_DATA(fast__3)
# Loading simprims_ver.LUT2(fast__4)
# Loading simprims_ver.LUT6(fast__15)
# Loading simprims_ver.LUT3(fast__1)
# Loading simprims_ver.LUT6(fast__16)
# Loading simprims_ver.FDSE(fast)
# Loading simprims_ver.LUT5(fast__7)
# Loading simprims_ver.LUT5(fast__8)
# Loading simprims_ver.LUT4(fast__10)
# Loading simprims_ver.LUT6(fast__17)
# Loading simprims_ver.SRLC32E(fast)
# Loading simprims_ver.LUT3(fast__2)
# Loading simprims_ver.LUT6(fast__18)
# Loading simprims_ver.LUT3(fast__3)
# Loading work.parallel_ntt_0_mem_dp__1(fast)
# Loading work.parallel_ntt_0_blk_mem_gen_v8_4_1__1(fast)
# Loading work.parallel_ntt_0_blk_mem_gen_v8_4_1_synth_84(fast)
# Loading work.parallel_ntt_0_blk_mem_gen_top_85(fast)
# Loading work.parallel_ntt_0_blk_mem_gen_generic_cstr_86(fast)
# Loading work.parallel_ntt_0_blk_mem_gen_prim_width_87(fast)
# Loading work.parallel_ntt_0_blk_mem_gen_prim_wrapper_init_88(fast)
# Loading simprims_ver.RAMB36E2(fast)
# Loading simprims_ver.LUT3(fast__4)
# Loading simprims_ver.LUT5(fast__9)
# Loading simprims_ver.LUT5(fast__10)
# Loading simprims_ver.LUT6(fast__19)
# Loading simprims_ver.LUT2(fast__5)
# Loading simprims_ver.FDSE(fast__1)
# Loading simprims_ver.LUT6(fast__20)
# Loading simprims_ver.LUT6(fast__21)
# Loading simprims_ver.LUT5(fast__11)
# Loading simprims_ver.LUT6(fast__22)
# Loading simprims_ver.LUT6(fast__23)
# Loading simprims_ver.LUT6(fast__24)
# Loading simprims_ver.LUT5(fast__12)
# Loading simprims_ver.LUT5(fast__13)
# Loading simprims_ver.LUT2(fast__6)
# Loading simprims_ver.LUT3(fast__5)
# Loading simprims_ver.LUT5(fast__14)
# Loading simprims_ver.LUT3(fast__6)
# Loading simprims_ver.LUT6(fast__25)
# Loading simprims_ver.LUT6(fast__26)
# Loading simprims_ver.LUT3(fast__7)
# Loading work.parallel_ntt_0_mult_gen_32x32__4(fast)
# Loading work.parallel_ntt_0_mult_gen_v12_0_14__4(fast)
# Loading simprims_ver.DSP_A_B_DATA(fast__4)
# Loading simprims_ver.LUT5(fast__15)
# Loading simprims_ver.LUT4(fast__11)
# Loading simprims_ver.LUT6(fast__27)
# Loading simprims_ver.LUT3(fast__8)
# Loading simprims_ver.LUT6(fast__28)
# Loading simprims_ver.LUT6(fast__29)
# Loading simprims_ver.LUT6(fast__30)
# Loading simprims_ver.LUT2(fast__7)
# Loading work.parallel_ntt_0_mem_sp(fast)
# Loading work.RAM32X1S_UNIQ_BASE_(fast)
# Loading simprims_ver.RAMS32(fast)
# Loading work.RAM32X1S_HD465(fast)
# Loading simprims_ver.RAMS32(fast__1)
# Loading work.RAM32X1S_HD466(fast)
# Loading simprims_ver.RAMS32(fast__2)
# Loading work.RAM32X1S_HD467(fast)
# Loading simprims_ver.RAMS32(fast__3)
# Loading work.RAM32X1S_HD468(fast)
# Loading simprims_ver.RAMS32(fast__4)
# Loading work.RAM32X1S_HD469(fast)
# Loading simprims_ver.RAMS32(fast__5)
# Loading work.RAM32X1S_HD470(fast)
# Loading simprims_ver.RAMS32(fast__6)
# Loading work.RAM32X1S_HD471(fast)
# Loading simprims_ver.RAMS32(fast__7)
# Loading work.RAM32X1S_HD472(fast)
# Loading simprims_ver.RAMS32(fast__8)
# Loading work.RAM32X1S_HD473(fast)
# Loading simprims_ver.RAMS32(fast__9)
# Loading work.RAM32X1S_HD474(fast)
# Loading simprims_ver.RAMS32(fast__10)
# Loading work.RAM32X1S_HD475(fast)
# Loading simprims_ver.RAMS32(fast__11)
# Loading work.RAM32X1S_HD476(fast)
# Loading simprims_ver.RAMS32(fast__12)
# Loading work.RAM32X1S_HD477(fast)
# Loading simprims_ver.RAMS32(fast__13)
# Loading work.RAM32X1S_HD478(fast)
# Loading simprims_ver.RAMS32(fast__14)
# Loading work.RAM32X1S_HD479(fast)
# Loading simprims_ver.RAMS32(fast__15)
# Loading work.RAM32X1S_HD480(fast)
# Loading simprims_ver.RAMS32(fast__16)
# Loading work.RAM32X1S_HD481(fast)
# Loading simprims_ver.RAMS32(fast__17)
# Loading work.RAM32X1S_HD482(fast)
# Loading simprims_ver.RAMS32(fast__18)
# Loading work.RAM32X1S_HD483(fast)
# Loading simprims_ver.RAMS32(fast__19)
# Loading work.RAM32X1S_HD484(fast)
# Loading simprims_ver.RAMS32(fast__20)
# Loading work.RAM32X1S_HD485(fast)
# Loading simprims_ver.RAMS32(fast__21)
# Loading work.RAM32X1S_HD486(fast)
# Loading simprims_ver.RAMS32(fast__22)
# Loading work.RAM32X1S_HD487(fast)
# Loading simprims_ver.RAMS32(fast__23)
# Loading work.RAM32X1S_HD488(fast)
# Loading simprims_ver.RAMS32(fast__24)
# Loading work.RAM32X1S_HD489(fast)
# Loading simprims_ver.RAMS32(fast__25)
# Loading work.RAM32X1S_HD490(fast)
# Loading simprims_ver.RAMS32(fast__26)
# Loading work.RAM32X1S_HD491(fast)
# Loading simprims_ver.RAMS32(fast__27)
# Loading work.RAM32X1S_HD492(fast)
# Loading simprims_ver.RAMS32(fast__28)
# Loading work.RAM32X1S_HD493(fast)
# Loading simprims_ver.RAMS32(fast__29)
# Loading work.RAM32X1S_HD494(fast)
# Loading simprims_ver.RAMS32(fast__30)
# Loading work.RAM32X1S_HD495(fast)
# Loading simprims_ver.RAMS32(fast__31)
# Loading simprims_ver.LUT3(fast__9)
# Loading simprims_ver.LUT6(fast__31)
# Loading simprims_ver.LUT4(fast__12)
# Loading work.parallel_ntt_0_NTT_processor__parameterized0(fast)
# Loading work.parallel_ntt_0_Barret_reduce__xdcDup__2(fast)
# Loading work.parallel_ntt_0_mult_gen_32x32__7(fast)
# Loading work.parallel_ntt_0_mult_gen_v12_0_14__7(fast)
# Loading work.parallel_ntt_0_mult_gen_64x33__5(fast)
# Loading work.parallel_ntt_0_mult_gen_v12_0_14__parameterized1__5(fast)
# Loading simprims_ver.LUT4(fast__13)
# Loading work.parallel_ntt_0_mem_dp__2(fast)
# Loading work.parallel_ntt_0_blk_mem_gen_v8_4_1__2(fast)
# Loading work.parallel_ntt_0_blk_mem_gen_v8_4_1_synth_56(fast)
# Loading work.parallel_ntt_0_blk_mem_gen_top_57(fast)
# Loading work.parallel_ntt_0_blk_mem_gen_generic_cstr_58(fast)
# Loading work.parallel_ntt_0_blk_mem_gen_prim_width_59(fast)
# Loading work.parallel_ntt_0_blk_mem_gen_prim_wrapper_init_60(fast)
# Loading simprims_ver.LUT6(fast__32)
# Loading work.parallel_ntt_0_mult_gen_32x32__6(fast)
# Loading work.parallel_ntt_0_mult_gen_v12_0_14__6(fast)
# Loading work.parallel_ntt_0_mem_sp__parameterized0(fast)
# Loading work.RAM32X1S_HD511(fast)
# Loading simprims_ver.RAMS32(fast__32)
# Loading work.RAM32X1S_HD512(fast)
# Loading simprims_ver.RAMS32(fast__33)
# Loading work.RAM32X1S_HD513(fast)
# Loading simprims_ver.RAMS32(fast__34)
# Loading work.RAM32X1S_HD514(fast)
# Loading simprims_ver.RAMS32(fast__35)
# Loading work.RAM32X1S_HD515(fast)
# Loading simprims_ver.RAMS32(fast__36)
# Loading work.RAM32X1S_HD516(fast)
# Loading simprims_ver.RAMS32(fast__37)
# Loading work.RAM32X1S_HD517(fast)
# Loading simprims_ver.RAMS32(fast__38)
# Loading work.RAM32X1S_HD518(fast)
# Loading simprims_ver.RAMS32(fast__39)
# Loading work.RAM32X1S_HD519(fast)
# Loading simprims_ver.RAMS32(fast__40)
# Loading work.RAM32X1S_HD520(fast)
# Loading work.RAM32X1S_HD521(fast)
# Loading simprims_ver.RAMS32(fast__41)
# Loading work.RAM32X1S_HD522(fast)
# Loading simprims_ver.RAMS32(fast__42)
# Loading work.RAM32X1S_HD523(fast)
# Loading simprims_ver.RAMS32(fast__43)
# Loading work.RAM32X1S_HD524(fast)
# Loading work.RAM32X1S_HD525(fast)
# Loading simprims_ver.RAMS32(fast__44)
# Loading work.RAM32X1S_HD526(fast)
# Loading simprims_ver.RAMS32(fast__45)
# Loading work.RAM32X1S_HD527(fast)
# Loading simprims_ver.RAMS32(fast__46)
# Loading work.RAM32X1S_HD528(fast)
# Loading simprims_ver.RAMS32(fast__47)
# Loading work.RAM32X1S_HD529(fast)
# Loading simprims_ver.RAMS32(fast__48)
# Loading work.RAM32X1S_HD530(fast)
# Loading simprims_ver.RAMS32(fast__49)
# Loading work.RAM32X1S_HD531(fast)
# Loading simprims_ver.RAMS32(fast__50)
# Loading work.RAM32X1S_HD532(fast)
# Loading simprims_ver.RAMS32(fast__51)
# Loading work.RAM32X1S_HD533(fast)
# Loading simprims_ver.RAMS32(fast__52)
# Loading work.RAM32X1S_HD534(fast)
# Loading simprims_ver.RAMS32(fast__53)
# Loading work.RAM32X1S_HD535(fast)
# Loading simprims_ver.RAMS32(fast__54)
# Loading work.RAM32X1S_HD536(fast)
# Loading simprims_ver.RAMS32(fast__55)
# Loading work.RAM32X1S_HD537(fast)
# Loading simprims_ver.RAMS32(fast__56)
# Loading work.RAM32X1S_HD538(fast)
# Loading simprims_ver.RAMS32(fast__57)
# Loading work.RAM32X1S_HD539(fast)
# Loading work.RAM32X1S_HD540(fast)
# Loading simprims_ver.RAMS32(fast__58)
# Loading work.RAM32X1S_HD541(fast)
# Loading simprims_ver.RAMS32(fast__59)
# Loading work.RAM32X1S_HD542(fast)
# Loading simprims_ver.RAMS32(fast__60)
# Loading work.parallel_ntt_0_NTT_processor__parameterized1(fast)
# Loading work.parallel_ntt_0_Barret_reduce__xdcDup__3(fast)
# Loading work.parallel_ntt_0_mult_gen_32x32__9(fast)
# Loading work.parallel_ntt_0_mult_gen_v12_0_14__9(fast)
# Loading work.parallel_ntt_0_mult_gen_64x33__6(fast)
# Loading work.parallel_ntt_0_mult_gen_v12_0_14__parameterized1__6(fast)
# Loading work.parallel_ntt_0_mem_dp__3(fast)
# Loading work.parallel_ntt_0_blk_mem_gen_v8_4_1__3(fast)
# Loading work.parallel_ntt_0_blk_mem_gen_v8_4_1_synth_28(fast)
# Loading work.parallel_ntt_0_blk_mem_gen_top_29(fast)
# Loading work.parallel_ntt_0_blk_mem_gen_generic_cstr_30(fast)
# Loading work.parallel_ntt_0_blk_mem_gen_prim_width_31(fast)
# Loading work.parallel_ntt_0_blk_mem_gen_prim_wrapper_init_32(fast)
# Loading simprims_ver.LUT5(fast__16)
# Loading work.parallel_ntt_0_mult_gen_32x32__8(fast)
# Loading work.parallel_ntt_0_mult_gen_v12_0_14__8(fast)
# Loading work.parallel_ntt_0_mem_sp__parameterized1(fast)
# Loading work.RAM32X1S_HD558(fast)
# Loading simprims_ver.RAMS32(fast__61)
# Loading work.RAM32X1S_HD559(fast)
# Loading simprims_ver.RAMS32(fast__62)
# Loading work.RAM32X1S_HD560(fast)
# Loading simprims_ver.RAMS32(fast__63)
# Loading work.RAM32X1S_HD561(fast)
# Loading simprims_ver.RAMS32(fast__64)
# Loading work.RAM32X1S_HD562(fast)
# Loading simprims_ver.RAMS32(fast__65)
# Loading work.RAM32X1S_HD563(fast)
# Loading simprims_ver.RAMS32(fast__66)
# Loading work.RAM32X1S_HD564(fast)
# Loading simprims_ver.RAMS32(fast__67)
# Loading work.RAM32X1S_HD565(fast)
# Loading simprims_ver.RAMS32(fast__68)
# Loading work.RAM32X1S_HD566(fast)
# Loading simprims_ver.RAMS32(fast__69)
# Loading work.RAM32X1S_HD567(fast)
# Loading simprims_ver.RAMS32(fast__70)
# Loading work.RAM32X1S_HD568(fast)
# Loading work.RAM32X1S_HD569(fast)
# Loading simprims_ver.RAMS32(fast__71)
# Loading work.RAM32X1S_HD570(fast)
# Loading simprims_ver.RAMS32(fast__72)
# Loading work.RAM32X1S_HD571(fast)
# Loading simprims_ver.RAMS32(fast__73)
# Loading work.RAM32X1S_HD572(fast)
# Loading simprims_ver.RAMS32(fast__74)
# Loading work.RAM32X1S_HD573(fast)
# Loading simprims_ver.RAMS32(fast__75)
# Loading work.RAM32X1S_HD574(fast)
# Loading simprims_ver.RAMS32(fast__76)
# Loading work.RAM32X1S_HD575(fast)
# Loading simprims_ver.RAMS32(fast__77)
# Loading work.RAM32X1S_HD576(fast)
# Loading work.RAM32X1S_HD577(fast)
# Loading simprims_ver.RAMS32(fast__78)
# Loading work.RAM32X1S_HD578(fast)
# Loading simprims_ver.RAMS32(fast__79)
# Loading work.RAM32X1S_HD579(fast)
# Loading simprims_ver.RAMS32(fast__80)
# Loading work.RAM32X1S_HD580(fast)
# Loading simprims_ver.RAMS32(fast__81)
# Loading work.RAM32X1S_HD581(fast)
# Loading simprims_ver.RAMS32(fast__82)
# Loading work.RAM32X1S_HD582(fast)
# Loading simprims_ver.RAMS32(fast__83)
# Loading work.RAM32X1S_HD583(fast)
# Loading simprims_ver.RAMS32(fast__84)
# Loading work.RAM32X1S_HD584(fast)
# Loading simprims_ver.RAMS32(fast__85)
# Loading work.RAM32X1S_HD585(fast)
# Loading simprims_ver.RAMS32(fast__86)
# Loading work.RAM32X1S_HD586(fast)
# Loading simprims_ver.RAMS32(fast__87)
# Loading work.RAM32X1S_HD587(fast)
# Loading simprims_ver.RAMS32(fast__88)
# Loading work.RAM32X1S_HD588(fast)
# Loading simprims_ver.RAMS32(fast__89)
# Loading work.RAM32X1S_HD589(fast)
# Loading simprims_ver.RAMS32(fast__90)
# Loading work.parallel_ntt_0_NTT_processor__parameterized2(fast)
# Loading work.parallel_ntt_0_Barret_reduce(fast)
# Loading work.parallel_ntt_0_mult_gen_32x32(fast)
# Loading work.parallel_ntt_0_mult_gen_v12_0_14(fast)
# Loading work.parallel_ntt_0_mult_gen_64x33(fast)
# Loading work.parallel_ntt_0_mult_gen_v12_0_14__parameterized1(fast)
# Loading work.parallel_ntt_0_mem_dp(fast)
# Loading work.parallel_ntt_0_blk_mem_gen_v8_4_1(fast)
# Loading work.parallel_ntt_0_blk_mem_gen_v8_4_1_synth(fast)
# Loading work.parallel_ntt_0_blk_mem_gen_top(fast)
# Loading work.parallel_ntt_0_blk_mem_gen_generic_cstr(fast)
# Loading work.parallel_ntt_0_blk_mem_gen_prim_width(fast)
# Loading work.parallel_ntt_0_blk_mem_gen_prim_wrapper_init(fast)
# Loading simprims_ver.LUT4(fast__14)
# Loading work.parallel_ntt_0_mult_gen_32x32__10(fast)
# Loading work.parallel_ntt_0_mult_gen_v12_0_14__10(fast)
# Loading work.parallel_ntt_0_mem_sp__parameterized2(fast)
# Loading work.RAM32X1S_HD605(fast)
# Loading simprims_ver.RAMS32(fast__91)
# Loading work.RAM32X1S_HD606(fast)
# Loading simprims_ver.RAMS32(fast__92)
# Loading work.RAM32X1S_HD607(fast)
# Loading simprims_ver.RAMS32(fast__93)
# Loading work.RAM32X1S_HD608(fast)
# Loading simprims_ver.RAMS32(fast__94)
# Loading work.RAM32X1S_HD609(fast)
# Loading work.RAM32X1S_HD610(fast)
# Loading simprims_ver.RAMS32(fast__95)
# Loading work.RAM32X1S_HD611(fast)
# Loading simprims_ver.RAMS32(fast__96)
# Loading work.RAM32X1S_HD612(fast)
# Loading simprims_ver.RAMS32(fast__97)
# Loading work.RAM32X1S_HD613(fast)
# Loading simprims_ver.RAMS32(fast__98)
# Loading work.RAM32X1S_HD614(fast)
# Loading work.RAM32X1S_HD615(fast)
# Loading simprims_ver.RAMS32(fast__99)
# Loading work.RAM32X1S_HD616(fast)
# Loading work.RAM32X1S_HD617(fast)
# Loading work.RAM32X1S_HD618(fast)
# Loading simprims_ver.RAMS32(fast__100)
# Loading work.RAM32X1S_HD619(fast)
# Loading simprims_ver.RAMS32(fast__101)
# Loading work.RAM32X1S_HD620(fast)
# Loading simprims_ver.RAMS32(fast__102)
# Loading work.RAM32X1S_HD621(fast)
# Loading simprims_ver.RAMS32(fast__103)
# Loading work.RAM32X1S_HD622(fast)
# Loading simprims_ver.RAMS32(fast__104)
# Loading work.RAM32X1S_HD623(fast)
# Loading work.RAM32X1S_HD624(fast)
# Loading simprims_ver.RAMS32(fast__105)
# Loading work.RAM32X1S_HD625(fast)
# Loading work.RAM32X1S_HD626(fast)
# Loading work.RAM32X1S_HD627(fast)
# Loading simprims_ver.RAMS32(fast__106)
# Loading work.RAM32X1S_HD628(fast)
# Loading work.RAM32X1S_HD629(fast)
# Loading simprims_ver.RAMS32(fast__107)
# Loading work.RAM32X1S_HD630(fast)
# Loading simprims_ver.RAMS32(fast__108)
# Loading work.RAM32X1S_HD631(fast)
# Loading simprims_ver.RAMS32(fast__109)
# Loading work.RAM32X1S_HD632(fast)
# Loading simprims_ver.RAMS32(fast__110)
# Loading work.RAM32X1S_HD633(fast)
# Loading simprims_ver.RAMS32(fast__111)
# Loading work.RAM32X1S_HD634(fast)
# Loading simprims_ver.RAMS32(fast__112)
# Loading work.RAM32X1S_HD635(fast)
# Loading simprims_ver.RAMS32(fast__113)
# Loading work.RAM32X1S_HD636(fast)
# Loading simprims_ver.RAMS32(fast__114)
# Loading work.parallel_ntt_0_parallel_ntt_v1_0_M_AXIS(fast)
# Loading simprims_ver.LUT6(fast__33)
# Loading simprims_ver.LUT4(fast__15)
# Loading simprims_ver.LUT2(fast__8)
# Loading simprims_ver.LUT5(fast__17)
# Loading work.parallel_ntt_0_parallel_ntt_v1_0_S_AXIS(fast)
# Loading work.IBUF_HD637(fast)
# Loading work.IBUF_HD638(fast)
# Loading work.IBUF_HD639(fast)
# Loading work.IBUF_HD640(fast)
# Loading work.IBUF_HD641(fast)
# Loading work.IBUF_HD642(fast)
# Loading work.IBUF_HD643(fast)
# Loading work.IBUF_HD644(fast)
# Loading work.IBUF_HD645(fast)
# Loading work.IBUF_HD646(fast)
# Loading work.IBUF_HD647(fast)
# Loading work.IBUF_HD648(fast)
# Loading work.IBUF_HD649(fast)
# Loading work.IBUF_HD650(fast)
# Loading work.IBUF_HD651(fast)
# Loading work.IBUF_HD652(fast)
# Loading work.IBUF_HD653(fast)
# Loading work.IBUF_HD654(fast)
# Loading work.IBUF_HD655(fast)
# Loading work.IBUF_HD656(fast)
# Loading work.IBUF_HD657(fast)
# Loading work.IBUF_HD658(fast)
# Loading work.IBUF_HD659(fast)
# Loading work.IBUF_HD660(fast)
# Loading work.IBUF_HD661(fast)
# Loading work.IBUF_HD662(fast)
# Loading work.IBUF_HD663(fast)
# Loading work.IBUF_HD664(fast)
# Loading work.IBUF_HD665(fast)
# Loading work.IBUF_HD666(fast)
# Loading work.IBUF_HD667(fast)
# Loading work.IBUF_HD668(fast)
# Loading work.IBUF_HD669(fast)
# Loading work.IBUF_HD670(fast)
# Loading work.IBUF_HD671(fast)
# Loading work.IBUF_HD672(fast)
# Loading work.glbl(fast)
# Loading instances from parallel_ntt_0_butterfly_tb_time_impl.sdf
# Loading timing data from parallel_ntt_0_butterfly_tb_time_impl.sdf
# ** Note: (vsim-3587) SDF Backannotation Successfully Completed.
#    Time: 0 ps  Iteration: 0  Instance: /parallel_ntt_0_butterfly_tb File: ../../../../../user_rtl/parallel_ntt_0_butterfly_tb.v
# ** Warning: (vsim-3316) No solution possible for some delayed timing check nets. 156 negative limits were zeroed. Use +ntc_warn for more info.
#    Time: 0 ps  Iteration: 0  Instance: /parallel_ntt_0_butterfly_tb File: ../../../../../user_rtl/parallel_ntt_0_butterfly_tb.v
# 1
# 1
# .main_pane.wave.interior.cs.body.pw.wf
# .main_pane.structure.interior.cs.body.struct
# .main_pane.objects.interior.cs.body.tree
#  Time Clk Rstb Valid Ready Last Data
#        0.0ns 0 0 0 1 0 00000000000000000000000000000000
#       50.0ns 1 0 0 1 0 00000000000000000000000000000000
#      100.0ns 0 0 0 1 0 00000000000000000000000000000000
#      150.0ns 1 0 0 1 0 00000000000000000000000000000000
#      200.0ns 0 0 0 1 0 00000000000000000000000000000000
#      250.0ns 1 0 0 1 0 00000000000000000000000000000000
#      300.0ns 0 0 0 1 0 00000000000000000000000000000000
#      350.0ns 1 0 0 1 0 00000000000000000000000000000000
#      400.0ns 0 0 0 1 0 00000000000000000000000000000000
#      450.0ns 1 0 0 1 0 00000000000000000000000000000000
#      500.0ns 0 0 0 1 0 00000000000000000000000000000000
#      550.0ns 1 0 0 1 0 00000000000000000000000000000000
#      600.0ns 0 0 0 1 0 00000000000000000000000000000000
#      650.0ns 1 0 0 1 0 00000000000000000000000000000000
#      700.0ns 0 0 0 1 0 00000000000000000000000000000000
#      750.0ns 1 0 0 1 0 00000000000000000000000000000000
#      800.0ns 0 0 0 1 0 00000000000000000000000000000000
#      850.0ns 1 0 0 1 0 00000000000000000000000000000000
#      900.0ns 0 0 0 1 0 00000000000000000000000000000000
#      950.0ns 1 0 0 1 0 00000000000000000000000000000000
add wave -position insertpoint sim:/parallel_ntt_0_butterfly_tb/DUT/parallel_ntt_0_instance/inst/parallel_NTT_top_inst/P0/data/*
run 13us
#     1000.0ns 0 0 0 1 0 00000000000000000000000000000000
#     1050.0ns 1 0 0 1 0 00000000000000000000000000000000
#     1100.0ns 0 0 0 1 0 00000000000000000000000000000000
#     1150.0ns 1 0 0 1 0 00000000000000000000000000000000
#     1200.0ns 0 0 0 1 0 00000000000000000000000000000000
#     1250.0ns 1 0 0 1 0 00000000000000000000000000000000
#     1300.0ns 0 0 0 1 0 00000000000000000000000000000000
#     1350.0ns 1 0 0 1 0 00000000000000000000000000000000
#     1400.0ns 0 0 0 1 0 00000000000000000000000000000000
#     1450.0ns 1 0 0 1 0 00000000000000000000000000000000
#     1500.0ns 0 0 0 1 0 00000000000000000000000000000000
#     1550.0ns 1 0 0 1 0 00000000000000000000000000000000
#     1600.0ns 0 0 0 1 0 00000000000000000000000000000000
#     1650.0ns 1 0 0 1 0 00000000000000000000000000000000
#     1700.0ns 0 0 0 1 0 00000000000000000000000000000000
#     1750.0ns 1 0 0 1 0 00000000000000000000000000000000
#     1800.0ns 0 0 0 1 0 00000000000000000000000000000000
#     1850.0ns 1 0 0 1 0 00000000000000000000000000000000
#     1900.0ns 0 0 0 1 0 00000000000000000000000000000000
#     1950.0ns 1 0 0 1 0 00000000000000000000000000000000
#     2000.0ns 0 1 0 1 0 00000000000000000000000000000000
#     2050.0ns 1 1 0 1 0 00000000000000000000000000000000
#     2100.0ns 0 1 0 1 0 00000000000000000000000000000000
#     2150.0ns 1 1 0 1 0 00000000000000000000000000000000
#     2200.0ns 0 1 0 1 0 00000000000000000000000000000000
#     2250.0ns 1 1 0 1 0 00000000000000000000000000000000
#     2300.0ns 0 1 0 1 0 00000000000000000000000000000000
#     2350.0ns 1 1 0 1 0 00000000000000000000000000000000
#     2400.0ns 0 1 0 1 0 00000000000000000000000000000000
#     2450.0ns 1 1 0 1 0 00000000000000000000000000000000
#     2500.0ns 0 1 0 1 0 00000000000000000000000000000000
#     2550.0ns 1 1 0 1 0 00000000000000000000000000000000
#     2600.0ns 0 1 0 1 0 00000000000000000000000000000000
#     2650.0ns 1 1 0 1 0 00000000000000000000000000000000
#     2700.0ns 0 1 0 1 0 00000000000000000000000000000000
#     2750.0ns 1 1 0 1 0 00000000000000000000000000000000
#     2800.0ns 0 1 0 1 0 00000000000000000000000000000000
#     2850.0ns 1 1 0 1 0 00000000000000000000000000000000
#     2900.0ns 0 1 0 1 0 00000000000000000000000000000000
#     2950.0ns 1 1 0 1 0 00000000000000000000000000000000
#     3000.0ns 0 1 0 1 0 00000000000000000000000000000000
#     3050.0ns 1 1 0 1 0 00000000000000000000000000000000
#     3100.0ns 0 1 0 1 0 00000000000000000000000000000000
#     3150.0ns 1 1 0 1 0 00000000000000000000000000000000
#     3200.0ns 0 1 0 1 0 00000000000000000000000000000000
#     3250.0ns 1 1 0 1 0 00000000000000000000000000000000
#     3300.0ns 0 1 0 1 0 00000000000000000000000000000000
#     3350.0ns 1 1 0 1 0 00000000000000000000000000000000
#     3400.0ns 0 1 0 1 0 00000000000000000000000000000000
#     3450.0ns 1 1 0 1 0 00000000000000000000000000000000
#     3500.0ns 0 1 0 1 0 00000000000000000000000000000000
#     3550.0ns 1 1 0 1 0 00000000000000000000000000000000
#     3600.0ns 0 1 0 1 0 00000000000000000000000000000000
#     3650.0ns 1 1 0 1 0 00000000000000000000000000000000
#     3700.0ns 0 1 0 1 0 00000000000000000000000000000000
#     3750.0ns 1 1 0 1 0 00000000000000000000000000000000
#     3800.0ns 0 1 0 1 0 00000000000000000000000000000000
#     3850.0ns 1 1 0 1 0 00000000000000000000000000000000
#     3900.0ns 0 1 0 1 0 00000000000000000000000000000000
#     3950.0ns 1 1 0 1 0 00000000000000000000000000000000
#     4000.0ns 0 1 0 1 0 00000000000000000000000000000000
#     4025.0ns 0 1 1 1 0 00000000000000000000000000000000
#     4050.0ns 1 1 1 1 0 00000000000000000000000000000000
#     4100.0ns 0 1 1 1 0 00000000000000000000000000000001
#     4150.0ns 1 1 1 1 0 00000000000000000000000000000001
#     4200.0ns 0 1 1 1 0 00000000000000000000000000000010
#     4250.0ns 1 1 1 1 0 00000000000000000000000000000010
#     4300.0ns 0 1 1 1 0 00000000000000000000000000000011
