hardware/parallel_NTT/parallel_NTT.sim/sim_ntt/impl/func/xsim/simulate.log
Vivado Simulator 2018.1
Time resolution is 1 ps
 Time Clk Rstb Valid Ready Last Data
       0.0ns 0 0 0 1 0 00000000000000000000000000000000
      50.0ns 1 0 0 1 0 00000000000000000000000000000000
     100.0ns 0 0 0 1 0 00000000000000000000000000000000
     150.0ns 1 0 0 1 0 00000000000000000000000000000000
     200.0ns 0 0 0 1 0 00000000000000000000000000000000
     250.0ns 1 0 0 1 0 00000000000000000000000000000000
     300.0ns 0 0 0 1 0 00000000000000000000000000000000
     350.0ns 1 0 0 1 0 00000000000000000000000000000000
     400.0ns 0 0 0 1 0 00000000000000000000000000000000
     450.0ns 1 0 0 1 0 00000000000000000000000000000000
     500.0ns 0 0 0 1 0 00000000000000000000000000000000
     550.0ns 1 0 0 1 0 00000000000000000000000000000000
     600.0ns 0 0 0 1 0 00000000000000000000000000000000
     650.0ns 1 0 0 1 0 00000000000000000000000000000000
     700.0ns 0 0 0 1 0 00000000000000000000000000000000
     750.0ns 1 0 0 1 0 00000000000000000000000000000000
     800.0ns 0 0 0 1 0 00000000000000000000000000000000
     850.0ns 1 0 0 1 0 00000000000000000000000000000000
     900.0ns 0 0 0 1 0 00000000000000000000000000000000
     950.0ns 1 0 0 1 0 00000000000000000000000000000000
    1000.0ns 0 0 0 1 0 00000000000000000000000000000000
    1050.0ns 1 0 0 1 0 00000000000000000000000000000000
    1100.0ns 0 0 0 1 0 00000000000000000000000000000000
    1150.0ns 1 0 0 1 0 00000000000000000000000000000000
    1200.0ns 0 0 0 1 0 00000000000000000000000000000000
    1250.0ns 1 0 0 1 0 00000000000000000000000000000000
    1300.0ns 0 0 0 1 0 00000000000000000000000000000000
    1350.0ns 1 0 0 1 0 00000000000000000000000000000000
    1400.0ns 0 0 0 1 0 00000000000000000000000000000000
    1450.0ns 1 0 0 1 0 00000000000000000000000000000000
    1500.0ns 0 0 0 1 0 00000000000000000000000000000000
    1550.0ns 1 0 0 1 0 00000000000000000000000000000000
    1600.0ns 0 0 0 1 0 00000000000000000000000000000000
    1650.0ns 1 0 0 1 0 00000000000000000000000000000000
    1700.0ns 0 0 0 1 0 00000000000000000000000000000000
    1750.0ns 1 0 0 1 0 00000000000000000000000000000000
    1800.0ns 0 0 0 1 0 00000000000000000000000000000000
    1850.0ns 1 0 0 1 0 00000000000000000000000000000000
    1900.0ns 0 0 0 1 0 00000000000000000000000000000000
    1950.0ns 1 0 0 1 0 00000000000000000000000000000000
    2000.0ns 0 1 0 1 0 00000000000000000000000000000000
    2050.0ns 1 1 0 1 0 00000000000000000000000000000000
    2100.0ns 0 1 0 1 0 00000000000000000000000000000000
    2150.0ns 1 1 0 1 0 00000000000000000000000000000000
    2200.0ns 0 1 0 1 0 00000000000000000000000000000000
    2250.0ns 1 1 0 1 0 00000000000000000000000000000000
    2300.0ns 0 1 0 1 0 00000000000000000000000000000000
    2350.0ns 1 1 0 1 0 00000000000000000000000000000000
    2400.0ns 0 1 0 1 0 00000000000000000000000000000000
    2450.0ns 1 1 0 1 0 00000000000000000000000000000000
    2500.0ns 0 1 0 1 0 00000000000000000000000000000000
    2550.0ns 1 1 0 1 0 00000000000000000000000000000000
    2600.0ns 0 1 0 1 0 00000000000000000000000000000000
    2650.0ns 1 1 0 1 0 00000000000000000000000000000000
    2700.0ns 0 1 0 1 0 00000000000000000000000000000000
    2750.0ns 1 1 0 1 0 00000000000000000000000000000000
    2800.0ns 0 1 0 1 0 00000000000000000000000000000000
    2850.0ns 1 1 0 1 0 00000000000000000000000000000000
    2900.0ns 0 1 0 1 0 00000000000000000000000000000000
    2950.0ns 1 1 0 1 0 00000000000000000000000000000000
    3000.0ns 0 1 0 1 0 00000000000000000000000000000000
    3050.0ns 1 1 0 1 0 00000000000000000000000000000000
    3100.0ns 0 1 0 1 0 00000000000000000000000000000000
    3150.0ns 1 1 0 1 0 00000000000000000000000000000000
    3200.0ns 0 1 0 1 0 00000000000000000000000000000000
    3250.0ns 1 1 0 1 0 00000000000000000000000000000000
    3300.0ns 0 1 0 1 0 00000000000000000000000000000000
    3350.0ns 1 1 0 1 0 00000000000000000000000000000000
    3400.0ns 0 1 0 1 0 00000000000000000000000000000000
    3450.0ns 1 1 0 1 0 00000000000000000000000000000000
    3500.0ns 0 1 0 1 0 00000000000000000000000000000000
    3550.0ns 1 1 0 1 0 00000000000000000000000000000000
    3600.0ns 0 1 0 1 0 00000000000000000000000000000000
    3650.0ns 1 1 0 1 0 00000000000000000000000000000000
    3700.0ns 0 1 0 1 0 00000000000000000000000000000000
    3750.0ns 1 1 0 1 0 00000000000000000000000000000000
    3800.0ns 0 1 0 1 0 00000000000000000000000000000000
    3850.0ns 1 1 0 1 0 00000000000000000000000000000000
    3900.0ns 0 1 0 1 0 00000000000000000000000000000000
    3950.0ns 1 1 0 1 0 00000000000000000000000000000000
    4000.0ns 0 1 0 1 0 10010010010001110110111101010011
    4025.0ns 0 1 1 1 0 10010010010001110110111101010011
    4050.0ns 1 1 1 1 0 10010010010001110110111101010011
    4100.0ns 0 1 1 1 0 01101101110010111010101100111101
    4150.0ns 1 1 1 1 0 01101101110010111010101100111101
    4200.0ns 0 1 1 1 0 10010011111111011100100100101111
    4250.0ns 1 1 1 1 0 10010011111111011100100100101111
    4300.0ns 0 1 1 1 0 00110100110000101101101000001011
    4350.0ns 1 1 1 1 0 00110100110000101101101000001011
    4400.0ns 0 1 1 1 0 11010000001101011101000001001000
    4450.0ns 1 1 1 1 0 11010000001101011101000001001000
    4500.0ns 0 1 1 1 0 11010010110101101011011001011010
    4550.0ns 1 1 1 1 0 11010010110101101011011001011010
    4600.0ns 0 1 1 1 0 10100111010010011111100000111000
    4650.0ns 1 1 1 1 0 10100111010010011111100000111000
    4700.0ns 0 1 1 1 0 00101001000001001100110101111010
    4750.0ns 1 1 1 1 0 00101001000001001100110101111010
    4800.0ns 0 1 1 1 0 10000101010010101001010100000010
    4850.0ns 1 1 1 1 0 10000101010010101001010100000010
    4900.0ns 0 1 1 1 0 01010011111010001110101001110000
    4950.0ns 1 1 1 1 0 01010011111010001110101001110000
    5000.0ns 0 1 1 1 0 00111111111111111100011110011110
    5050.0ns 1 1 1 1 0 00111111111111111100011110011110
    5100.0ns 0 1 1 1 0 11110011111010111100110010110111
    5150.0ns 1 1 1 1 0 11110011111010111100110010110111
    5200.0ns 0 1 1 1 0 11111111000111100101100101101110
    5250.0ns 1 1 1 1 0 11111111000111100101100101101110
    5300.0ns 0 1 1 1 0 00001011011010000000101111110000
    5350.0ns 1 1 1 1 0 00001011011010000000101111110000
    5400.0ns 0 1 1 1 0 11011100001100111000000101011110
    5450.0ns 1 1 1 1 0 11011100001100111000000101011110
    5500.0ns 0 1 1 1 0 10011010011010101011000110101001
    5550.0ns 1 1 1 1 0 10011010011010101011000110101001
    5600.0ns 0 1 1 1 0 01100001101100001110110100011001
    5650.0ns 1 1 1 1 0 01100001101100001110110100011001
    5700.0ns 0 1 1 1 0 01001000100110110011001101100101
    5750.0ns 1 1 1 1 0 01001000100110110011001101100101
    5800.0ns 0 1 1 1 0 10101100110010100111110101011001
    5850.0ns 1 1 1 1 0 10101100110010100111110101011001
    5900.0ns 0 1 1 1 0 01110100111100101110000111000001
    5950.0ns 1 1 1 1 0 01110100111100101110000111000001
    6000.0ns 0 1 1 1 0 10101111100101001001110010010011
    6050.0ns 1 1 1 1 0 10101111100101001001110010010011
    6100.0ns 0 1 1 1 0 10101001011011101100000100000100
    6150.0ns 1 1 1 1 0 10101001011011101100000100000100
    6200.0ns 0 1 1 1 0 00100010000010101101101010111001
    6250.0ns 1 1 1 1 0 00100010000010101101101010111001
    6300.0ns 0 1 1 1 0 11000100100100010000001011110000
    6350.0ns 1 1 1 1 0 11000100100100010000001011110000
    6400.0ns 0 1 1 1 0 11111011011111110110110011010011
    6450.0ns 1 1 1 1 0 11111011011111110110110011010011
    6500.0ns 0 1 1 1 0 11111000001010011101000000100010
    6550.0ns 1 1 1 1 0 11111000001010011101000000100010
    6600.0ns 0 1 1 1 0 10011101000000101111101100000100
    6650.0ns 1 1 1 1 0 10011101000000101111101100000100
    6700.0ns 0 1 1 1 0 00001011010101001010101000010110
    6750.0ns 1 1 1 1 0 00001011010101001010101000010110
    6800.0ns 0 1 1 1 0 00000001000010011100001000000100
    6850.0ns 1 1 1 1 0 00000001000010011100001000000100
    6900.0ns 0 1 1 1 0 00100010010011000000010110110000
    6950.0ns 1 1 1 1 0 00100010010011000000010110110000
    7000.0ns 0 1 1 1 0 11110000111001011000010000000011
    7050.0ns 1 1 1 1 0 11110000111001011000010000000011
    7100.0ns 0 1 1 1 0 01001101100010000100010001001111
    7125.0ns 0 1 1 1 1 01001101100010000100010001001111
    7150.0ns 1 1 1 1 1 01001101100010000100010001001111
    7200.0ns 0 1 0 1 0 01001101100010000100010001001111
    7250.0ns 1 1 0 1 0 01001101100010000100010001001111
    7300.0ns 0 1 0 1 0 01001101100010000100010001001111
    7350.0ns 1 1 0 1 0 01001101100010000100010001001111
    7400.0ns 0 1 0 1 0 01001101100010000100010001001111
    7450.0ns 1 1 0 1 0 01001101100010000100010001001111
    7500.0ns 0 1 0 1 0 01001101100010000100010001001111
    7550.0ns 1 1 0 1 0 01001101100010000100010001001111
    7600.0ns 0 1 0 1 0 01001101100010000100010001001111
    7650.0ns 1 1 0 1 0 01001101100010000100010001001111
    7700.0ns 0 0 0 1 0 01001101100010000100010001001111
    7750.0ns 1 0 0 1 0 01001101100010000100010001001111
    7800.0ns 0 0 0 1 0 01001101100010000100010001001111
    7850.0ns 1 0 0 1 0 01001101100010000100010001001111
    7900.0ns 0 0 0 1 0 01001101100010000100010001001111
    7950.0ns 1 0 0 1 0 01001101100010000100010001001111
    8000.0ns 0 0 0 1 0 01001101100010000100010001001111
    8050.0ns 1 0 0 1 0 01001101100010000100010001001111
    8100.0ns 0 0 0 1 0 01001101100010000100010001001111
    8150.0ns 1 0 0 1 0 01001101100010000100010001001111
    8200.0ns 0 0 0 1 0 01001101100010000100010001001111
    8250.0ns 1 0 0 1 0 01001101100010000100010001001111
    8300.0ns 0 0 0 1 0 01001101100010000100010001001111
    8350.0ns 1 0 0 1 0 01001101100010000100010001001111
    8400.0ns 0 0 0 1 0 01001101100010000100010001001111
    8450.0ns 1 0 0 1 0 01001101100010000100010001001111
    8500.0ns 0 0 0 1 0 01001101100010000100010001001111
    8550.0ns 1 0 0 1 0 01001101100010000100010001001111
    8600.0ns 0 0 0 1 0 01001101100010000100010001001111
    8650.0ns 1 0 0 1 0 01001101100010000100010001001111
    8700.0ns 0 0 0 1 0 01001101100010000100010001001111
    8750.0ns 1 0 0 1 0 01001101100010000100010001001111
    8800.0ns 0 0 0 1 0 01001101100010000100010001001111
    8850.0ns 1 0 0 1 0 01001101100010000100010001001111
    8900.0ns 0 0 0 1 0 01001101100010000100010001001111
    8950.0ns 1 0 0 1 0 01001101100010000100010001001111
    9000.0ns 0 0 0 1 0 01001101100010000100010001001111
    9050.0ns 1 0 0 1 0 01001101100010000100010001001111
    9100.0ns 0 0 0 1 0 01001101100010000100010001001111
    9150.0ns 1 0 0 1 0 01001101100010000100010001001111
    9200.0ns 0 0 0 1 0 01001101100010000100010001001111
    9250.0ns 1 0 0 1 0 01001101100010000100010001001111
    9300.0ns 0 0 0 1 0 01001101100010000100010001001111
    9350.0ns 1 0 0 1 0 01001101100010000100010001001111
    9400.0ns 0 0 0 1 0 01001101100010000100010001001111
    9450.0ns 1 0 0 1 0 01001101100010000100010001001111
    9500.0ns 0 0 0 1 0 01001101100010000100010001001111
    9550.0ns 1 0 0 1 0 01001101100010000100010001001111
    9600.0ns 0 0 0 1 0 01001101100010000100010001001111
    9650.0ns 1 0 0 1 0 01001101100010000100010001001111
    9700.0ns 0 1 0 1 0 01001101100010000100010001001111
    9750.0ns 1 1 0 1 0 01001101100010000100010001001111
    9800.0ns 0 1 0 1 0 01001101100010000100010001001111
    9850.0ns 1 1 0 1 0 01001101100010000100010001001111
    9900.0ns 0 1 0 1 0 01001101100010000100010001001111
    9950.0ns 1 1 0 1 0 01001101100010000100010001001111
   10000.0ns 0 1 0 1 0 01001101100010000100010001001111
   10050.0ns 1 1 0 1 0 01001101100010000100010001001111
   10100.0ns 0 1 0 1 0 01001101100010000100010001001111
   10150.0ns 1 1 0 1 0 01001101100010000100010001001111
   10200.0ns 0 1 0 1 0 01001101100010000100010001001111
   10250.0ns 1 1 0 1 0 01001101100010000100010001001111
   10300.0ns 0 1 0 1 0 01001101100010000100010001001111
   10350.0ns 1 1 0 1 0 01001101100010000100010001001111
   10400.0ns 0 1 0 1 0 01001101100010000100010001001111
   10450.0ns 1 1 0 1 0 01001101100010000100010001001111
   10500.0ns 0 1 0 1 0 01001101100010000100010001001111
   10550.0ns 1 1 0 1 0 01001101100010000100010001001111
   10600.0ns 0 1 0 1 0 01001101100010000100010001001111
   10650.0ns 1 1 0 1 0 01001101100010000100010001001111
   10700.0ns 0 1 0 1 0 01001101100010000100010001001111
   10750.0ns 1 1 0 1 0 01001101100010000100010001001111
   10800.0ns 0 1 0 1 0 01001101100010000100010001001111
   10850.0ns 1 1 0 1 0 01001101100010000100010001001111
   10900.0ns 0 1 0 1 0 01001101100010000100010001001111
   10950.0ns 1 1 0 1 0 01001101100010000100010001001111
   11000.0ns 0 1 0 1 0 01001101100010000100010001001111
   11050.0ns 1 1 0 1 0 01001101100010000100010001001111
   11100.0ns 0 1 0 1 0 01001101100010000100010001001111
   11150.0ns 1 1 0 1 0 01001101100010000100010001001111
   11200.0ns 0 1 0 1 0 01001101100010000100010001001111
   11250.0ns 1 1 0 1 0 01001101100010000100010001001111
   11300.0ns 0 1 0 1 0 01001101100010000100010001001111
   11350.0ns 1 1 0 1 0 01001101100010000100010001001111
   11400.0ns 0 1 0 1 0 01001101100010000100010001001111
   11450.0ns 1 1 0 1 0 01001101100010000100010001001111
   11500.0ns 0 1 0 1 0 01001101100010000100010001001111
   11550.0ns 1 1 0 1 0 01001101100010000100010001001111
   11600.0ns 0 1 0 1 0 01001101100010000100010001001111
   11650.0ns 1 1 0 1 0 01001101100010000100010001001111
   11700.0ns 0 1 0 1 0 01001101100010000100010001001111
   11750.0ns 1 1 0 1 0 01001101100010000100010001001111
   11800.0ns 0 1 0 1 0 01001101100010000100010001001111
   11850.0ns 1 1 0 1 0 01001101100010000100010001001111
   11900.0ns 0 1 0 1 0 01001101100010000100010001001111
   11950.0ns 1 1 0 1 0 01001101100010000100010001001111
   12000.0ns 0 1 0 1 0 01001101100010000100010001001111
   12050.0ns 1 1 0 1 0 01001101100010000100010001001111
   12100.0ns 0 1 0 1 0 01001101100010000100010001001111
   12150.0ns 1 1 0 1 0 01001101100010000100010001001111
   12200.0ns 0 1 0 1 0 01001101100010000100010001001111
   12250.0ns 1 1 0 1 0 01001101100010000100010001001111
   12300.0ns 0 1 0 1 0 01001101100010000100010001001111
   12350.0ns 1 1 0 1 0 01001101100010000100010001001111
   12400.0ns 0 1 0 1 0 01001101100010000100010001001111
   12450.0ns 1 1 0 1 0 01001101100010000100010001001111
   12500.0ns 0 1 0 1 0 01001101100010000100010001001111
   12550.0ns 1 1 0 1 0 01001101100010000100010001001111
   12600.0ns 0 1 0 1 0 01001101100010000100010001001111
   12650.0ns 1 1 0 1 0 01001101100010000100010001001111
   12700.0ns 0 1 0 1 0 01001101100010000100010001001111
   12750.0ns 1 1 0 1 0 01001101100010000100010001001111
   12800.0ns 0 1 0 1 0 01001101100010000100010001001111
   12850.0ns 1 1 0 1 0 01001101100010000100010001001111
   12900.0ns 0 1 0 1 0 01001101100010000100010001001111
   12950.0ns 1 1 0 1 0 01001101100010000100010001001111
   13000.0ns 0 1 0 1 0 01001101100010000100010001001111
   13050.0ns 1 1 0 1 0 01001101100010000100010001001111
   13100.0ns 0 1 0 1 0 01001101100010000100010001001111
   13150.0ns 1 1 0 1 0 01001101100010000100010001001111
   13200.0ns 0 1 0 1 0 01001101100010000100010001001111
   13250.0ns 1 1 0 1 0 01001101100010000100010001001111
   13300.0ns 0 1 0 1 0 01001101100010000100010001001111
   13350.0ns 1 1 0 1 0 01001101100010000100010001001111
   13400.0ns 0 1 0 1 0 01001101100010000100010001001111
   13450.0ns 1 1 0 1 0 01001101100010000100010001001111
   13500.0ns 0 1 0 1 0 01001101100010000100010001001111
   13550.0ns 1 1 0 1 0 01001101100010000100010001001111
   13600.0ns 0 1 0 1 0 01001101100010000100010001001111
   13650.0ns 1 1 0 1 0 01001101100010000100010001001111
   13700.0ns 0 1 0 1 0 01001101100010000100010001001111
   13750.0ns 1 1 0 1 0 01001101100010000100010001001111
   13800.0ns 0 1 0 1 0 01001101100010000100010001001111
   13850.0ns 1 1 0 1 0 01001101100010000100010001001111
   13900.0ns 0 1 0 1 0 01001101100010000100010001001111
   13950.0ns 1 1 0 1 0 01001101100010000100010001001111
   14000.0ns 0 1 0 1 0 01001101100010000100010001001111
   14050.0ns 1 1 0 1 0 01001101100010000100010001001111
   14100.0ns 0 1 0 1 0 01001101100010000100010001001111
   14150.0ns 1 1 0 1 0 01001101100010000100010001001111
   14200.0ns 0 1 0 1 0 01001101100010000100010001001111
   14250.0ns 1 1 0 1 0 01001101100010000100010001001111
   14300.0ns 0 1 0 1 0 01001101100010000100010001001111
   14350.0ns 1 1 0 1 0 01001101100010000100010001001111
   14400.0ns 0 1 0 1 0 01001101100010000100010001001111
   14450.0ns 1 1 0 1 0 01001101100010000100010001001111
   14500.0ns 0 1 0 1 0 01001101100010000100010001001111
   14550.0ns 1 1 0 1 0 01001101100010000100010001001111
   14600.0ns 0 1 0 1 0 01001101100010000100010001001111
   14650.0ns 1 1 0 1 0 01001101100010000100010001001111
   14700.0ns 0 1 0 1 0 01001101100010000100010001001111
   14750.0ns 1 1 0 1 0 01001101100010000100010001001111
   14800.0ns 0 1 0 1 0 01001101100010000100010001001111
   14850.0ns 1 1 0 1 0 01001101100010000100010001001111
   14900.0ns 0 1 0 1 0 01001101100010000100010001001111
   14950.0ns 1 1 0 1 0 01001101100010000100010001001111
   15000.0ns 0 1 0 1 0 01001101100010000100010001001111
   15050.0ns 1 1 0 1 0 01001101100010000100010001001111
   15100.0ns 0 1 0 1 0 01001101100010000100010001001111
   15150.0ns 1 1 0 1 0 01001101100010000100010001001111
   15200.0ns 0 1 0 1 0 01001101100010000100010001001111
   15250.0ns 1 1 0 1 0 01001101100010000100010001001111
   15300.0ns 0 1 0 1 0 01001101100010000100010001001111
   15350.0ns 1 1 0 1 0 01001101100010000100010001001111
   15400.0ns 0 1 0 1 0 01001101100010000100010001001111
   15450.0ns 1 1 0 1 0 01001101100010000100010001001111
   15500.0ns 0 1 0 1 0 01001101100010000100010001001111
   15550.0ns 1 1 0 1 0 01001101100010000100010001001111
   15600.0ns 0 1 0 1 0 01001101100010000100010001001111
   15650.0ns 1 1 0 1 0 01001101100010000100010001001111
   15700.0ns 0 1 0 1 0 01001101100010000100010001001111
   15750.0ns 1 1 0 1 0 01001101100010000100010001001111
   15800.0ns 0 1 0 1 0 01001101100010000100010001001111
   15850.0ns 1 1 0 1 0 01001101100010000100010001001111
   15900.0ns 0 1 0 1 0 01001101100010000100010001001111
   15950.0ns 1 1 0 1 0 01001101100010000100010001001111
   16000.0ns 0 1 0 1 0 01001101100010000100010001001111
   16050.0ns 1 1 0 1 0 01001101100010000100010001001111
   16100.0ns 0 1 0 1 0 01001101100010000100010001001111
   16150.0ns 1 1 0 1 0 01001101100010000100010001001111
   16200.0ns 0 1 0 1 0 01001101100010000100010001001111
   16250.0ns 1 1 0 1 0 01001101100010000100010001001111
   16300.0ns 0 1 0 1 0 01001101100010000100010001001111
   16350.0ns 1 1 0 1 0 01001101100010000100010001001111
   16400.0ns 0 1 0 1 0 01001101100010000100010001001111
   16450.0ns 1 1 0 1 0 01001101100010000100010001001111
   16500.0ns 0 1 0 1 0 01001101100010000100010001001111
   16550.0ns 1 1 0 1 0 01001101100010000100010001001111
   16600.0ns 0 1 0 1 0 01001101100010000100010001001111
   16650.0ns 1 1 0 1 0 01001101100010000100010001001111
   16700.0ns 0 1 0 1 0 01001101100010000100010001001111
   16750.0ns 1 1 0 1 0 01001101100010000100010001001111
   16800.0ns 0 1 0 1 0 01001101100010000100010001001111
   16850.0ns 1 1 0 1 0 01001101100010000100010001001111
   16900.0ns 0 1 0 1 0 01001101100010000100010001001111
   16950.0ns 1 1 0 1 0 01001101100010000100010001001111
   17000.0ns 0 1 0 1 0 01001101100010000100010001001111
   17050.0ns 1 1 0 1 0 01001101100010000100010001001111
   17100.0ns 0 1 0 1 0 01001101100010000100010001001111
   17150.0ns 1 1 0 1 0 01001101100010000100010001001111
   17200.0ns 0 1 0 1 0 01001101100010000100010001001111
   17250.0ns 1 1 0 1 0 01001101100010000100010001001111
   17300.0ns 0 1 0 1 0 01001101100010000100010001001111
   17350.0ns 1 1 0 1 0 01001101100010000100010001001111
   17400.0ns 0 1 0 1 0 01001101100010000100010001001111
   17450.0ns 1 1 0 1 0 01001101100010000100010001001111
   17500.0ns 0 1 0 1 0 01001101100010000100010001001111
   17550.0ns 1 1 0 1 0 01001101100010000100010001001111
   17600.0ns 0 1 0 1 0 01001101100010000100010001001111
   17650.0ns 1 1 0 1 0 01001101100010000100010001001111
   17700.0ns 0 1 0 1 0 01001101100010000100010001001111
   17750.0ns 1 1 0 1 0 01001101100010000100010001001111
   17800.0ns 0 1 0 1 0 01001101100010000100010001001111
   17850.0ns 1 1 0 1 0 01001101100010000100010001001111
   17900.0ns 0 1 0 1 0 01001101100010000100010001001111
   17950.0ns 1 1 0 1 0 01001101100010000100010001001111
   18000.0ns 0 1 0 1 0 01001101100010000100010001001111
   18050.0ns 1 1 0 1 0 01001101100010000100010001001111
   18100.0ns 0 1 0 1 0 01001101100010000100010001001111
   18150.0ns 1 1 0 1 0 01001101100010000100010001001111
   18200.0ns 0 1 0 1 0 01001101100010000100010001001111
   18250.0ns 1 1 0 1 0 01001101100010000100010001001111
   18300.0ns 0 1 0 1 0 01001101100010000100010001001111
   18350.0ns 1 1 0 1 0 01001101100010000100010001001111
   18400.0ns 0 1 0 1 0 01001101100010000100010001001111
   18450.0ns 1 1 0 1 0 01001101100010000100010001001111
   18500.0ns 0 1 0 1 0 01001101100010000100010001001111
   18550.0ns 1 1 0 1 0 01001101100010000100010001001111
   18600.0ns 0 1 0 1 0 01001101100010000100010001001111
   18650.0ns 1 1 0 1 0 01001101100010000100010001001111
   18700.0ns 0 1 0 1 0 01001101100010000100010001001111
   18750.0ns 1 1 0 1 0 01001101100010000100010001001111
   18800.0ns 0 1 0 1 0 01001101100010000100010001001111
   18850.0ns 1 1 0 1 0 01001101100010000100010001001111
   18900.0ns 0 1 0 1 0 01001101100010000100010001001111
   18950.0ns 1 1 0 1 0 01001101100010000100010001001111
   19000.0ns 0 1 0 1 0 01001101100010000100010001001111
   19050.0ns 1 1 0 1 0 01001101100010000100010001001111
   19100.0ns 0 1 0 1 0 01001101100010000100010001001111
   19150.0ns 1 1 0 1 0 01001101100010000100010001001111
   19200.0ns 0 1 0 1 0 01001101100010000100010001001111
   19250.0ns 1 1 0 1 0 01001101100010000100010001001111
   19300.0ns 0 1 0 1 0 01001101100010000100010001001111
   19350.0ns 1 1 0 1 0 01001101100010000100010001001111
   19400.0ns 0 1 0 1 0 01001101100010000100010001001111
   19450.0ns 1 1 0 1 0 01001101100010000100010001001111
   19500.0ns 0 1 0 1 0 01001101100010000100010001001111
   19550.0ns 1 1 0 1 0 01001101100010000100010001001111
   19600.0ns 0 1 0 1 0 01001101100010000100010001001111
   19650.0ns 1 1 0 1 0 01001101100010000100010001001111
   19700.0ns 0 1 0 1 0 01001101100010000100010001001111
   19750.0ns 1 1 0 1 0 01001101100010000100010001001111
   19800.0ns 0 1 0 1 0 01001101100010000100010001001111
   19850.0ns 1 1 0 1 0 01001101100010000100010001001111
   19900.0ns 0 1 0 1 0 01001101100010000100010001001111
   19950.0ns 1 1 0 1 0 01001101100010000100010001001111
   20000.0ns 0 1 0 1 0 01001101100010000100010001001111
   20050.0ns 1 1 0 1 0 01001101100010000100010001001111
   20100.0ns 0 1 0 1 0 01001101100010000100010001001111
   20150.0ns 1 1 0 1 0 01001101100010000100010001001111
   20200.0ns 0 1 0 1 0 01001101100010000100010001001111
   20250.0ns 1 1 0 1 0 01001101100010000100010001001111
   20300.0ns 0 1 0 1 0 01001101100010000100010001001111
   20350.0ns 1 1 0 1 0 01001101100010000100010001001111
   20400.0ns 0 1 0 1 0 01001101100010000100010001001111
   20450.0ns 1 1 0 1 0 01001101100010000100010001001111
   20500.0ns 0 1 0 1 0 01001101100010000100010001001111
   20550.0ns 1 1 0 1 0 01001101100010000100010001001111
   20600.0ns 0 1 0 1 0 01001101100010000100010001001111
   20650.0ns 1 1 0 1 0 01001101100010000100010001001111
   20700.0ns 0 1 0 1 0 01001101100010000100010001001111
   20750.0ns 1 1 0 1 0 01001101100010000100010001001111
   20800.0ns 0 1 0 1 0 01001101100010000100010001001111
   20850.0ns 1 1 0 1 0 01001101100010000100010001001111
   20900.0ns 0 1 0 1 0 01001101100010000100010001001111
   20950.0ns 1 1 0 1 0 01001101100010000100010001001111
   21000.0ns 0 1 0 1 0 01001101100010000100010001001111
   21050.0ns 1 1 0 1 0 01001101100010000100010001001111
   21100.0ns 0 1 0 1 0 01001101100010000100010001001111
   21150.0ns 1 1 0 1 0 01001101100010000100010001001111
   21200.0ns 0 1 0 1 0 01001101100010000100010001001111
   21250.0ns 1 1 0 1 0 01001101100010000100010001001111
   21300.0ns 0 1 0 1 0 01001101100010000100010001001111
   21350.0ns 1 1 0 1 0 01001101100010000100010001001111
   21400.0ns 0 1 0 1 0 01001101100010000100010001001111
   21450.0ns 1 1 0 1 0 01001101100010000100010001001111
   21500.0ns 0 1 0 1 0 01001101100010000100010001001111
   21550.0ns 1 1 0 1 0 01001101100010000100010001001111
   21600.0ns 0 1 0 1 0 01001101100010000100010001001111
   21650.0ns 1 1 0 1 0 01001101100010000100010001001111
   21700.0ns 0 1 0 1 0 01001101100010000100010001001111
   21750.0ns 1 1 0 1 0 01001101100010000100010001001111
   21800.0ns 0 1 0 1 0 01001101100010000100010001001111
   21850.0ns 1 1 0 1 0 01001101100010000100010001001111
   21900.0ns 0 1 0 1 0 01001101100010000100010001001111
   21950.0ns 1 1 0 1 0 01001101100010000100010001001111
   22000.0ns 0 1 0 1 0 01001101100010000100010001001111
   22050.0ns 1 1 0 1 0 01001101100010000100010001001111
   22100.0ns 0 1 0 1 0 01001101100010000100010001001111
   22150.0ns 1 1 0 1 0 01001101100010000100010001001111
   22200.0ns 0 1 0 1 0 01001101100010000100010001001111
   22250.0ns 1 1 0 1 0 01001101100010000100010001001111
   22300.0ns 0 1 0 1 0 01001101100010000100010001001111
   22350.0ns 1 1 0 1 0 01001101100010000100010001001111
   22400.0ns 0 1 0 1 0 01001101100010000100010001001111
   22450.0ns 1 1 0 1 0 01001101100010000100010001001111
   22500.0ns 0 1 0 1 0 01001101100010000100010001001111
   22550.0ns 1 1 0 1 0 01001101100010000100010001001111
   22600.0ns 0 1 0 1 0 01001101100010000100010001001111
   22650.0ns 1 1 0 1 0 01001101100010000100010001001111
   22700.0ns 0 1 0 1 0 01001101100010000100010001001111
   22750.0ns 1 1 0 1 0 01001101100010000100010001001111
   22800.0ns 0 1 0 1 0 01001101100010000100010001001111
   22850.0ns 1 1 0 1 0 01001101100010000100010001001111
   22900.0ns 0 1 0 1 0 01001101100010000100010001001111
   22950.0ns 1 1 0 1 0 01001101100010000100010001001111
   23000.0ns 0 1 0 1 0 01001101100010000100010001001111
   23050.0ns 1 1 0 1 0 01001101100010000100010001001111
   23100.0ns 0 1 0 1 0 01001101100010000100010001001111
   23150.0ns 1 1 0 1 0 01001101100010000100010001001111
   23200.0ns 0 1 0 1 0 01001101100010000100010001001111
   23250.0ns 1 1 0 1 0 01001101100010000100010001001111
   23300.0ns 0 1 0 1 0 01001101100010000100010001001111
   23350.0ns 1 1 0 1 0 01001101100010000100010001001111
   23400.0ns 0 1 0 1 0 01001101100010000100010001001111
   23450.0ns 1 1 0 1 0 01001101100010000100010001001111
   23500.0ns 0 1 0 1 0 01001101100010000100010001001111
   23550.0ns 1 1 0 1 0 01001101100010000100010001001111
   23600.0ns 0 1 0 1 0 01001101100010000100010001001111
   23650.0ns 1 1 0 1 0 01001101100010000100010001001111
   23700.0ns 0 1 0 1 0 01001101100010000100010001001111
   23750.0ns 1 1 0 1 0 01001101100010000100010001001111
   23800.0ns 0 1 0 1 0 01001101100010000100010001001111
   23850.0ns 1 1 0 1 0 01001101100010000100010001001111
   23900.0ns 0 1 0 1 0 01001101100010000100010001001111
   23950.0ns 1 1 0 1 0 01001101100010000100010001001111
   24000.0ns 0 1 0 1 0 01001101100010000100010001001111
   24050.0ns 1 1 0 1 0 01001101100010000100010001001111
   24100.0ns 0 1 0 1 0 01001101100010000100010001001111
   24150.0ns 1 1 0 1 0 01001101100010000100010001001111
   24200.0ns 0 1 0 1 0 01001101100010000100010001001111
   24250.0ns 1 1 0 1 0 01001101100010000100010001001111
   24300.0ns 0 1 0 1 0 01001101100010000100010001001111
   24350.0ns 1 1 0 1 0 01001101100010000100010001001111
   24400.0ns 0 1 0 1 0 01001101100010000100010001001111
   24450.0ns 1 1 0 1 0 01001101100010000100010001001111
   24500.0ns 0 1 0 1 0 01001101100010000100010001001111
   24550.0ns 1 1 0 1 0 01001101100010000100010001001111
   24600.0ns 0 1 0 1 0 01001101100010000100010001001111
   24650.0ns 1 1 0 1 0 01001101100010000100010001001111
   24700.0ns 0 1 0 1 0 01001101100010000100010001001111
