hardware/parallel_NTT/parallel_NTT.sim/sim_ntt/synth/func/xsim/simulate.log
Vivado Simulator 2018.1
Time resolution is 1 ps
 Time Clk Rstb Valid Ready Last Data
       0.0ns 0 0 0 1 0 00000000000000000000000000000000
       5.0ns 1 0 0 1 0 00000000000000000000000000000000
      10.0ns 0 0 0 1 0 00000000000000000000000000000000
      15.0ns 1 0 0 1 0 00000000000000000000000000000000
      20.0ns 0 0 0 1 0 00000000000000000000000000000000
      25.0ns 1 0 0 1 0 00000000000000000000000000000000
      30.0ns 0 0 0 1 0 00000000000000000000000000000000
      35.0ns 1 0 0 1 0 00000000000000000000000000000000
      40.0ns 0 0 0 1 0 00000000000000000000000000000000
      45.0ns 1 0 0 1 0 00000000000000000000000000000000
      50.0ns 0 0 0 1 0 00000000000000000000000000000000
      55.0ns 1 0 0 1 0 00000000000000000000000000000000
      60.0ns 0 0 0 1 0 00000000000000000000000000000000
      65.0ns 1 0 0 1 0 00000000000000000000000000000000
      70.0ns 0 0 0 1 0 00000000000000000000000000000000
      75.0ns 1 0 0 1 0 00000000000000000000000000000000
      80.0ns 0 0 0 1 0 00000000000000000000000000000000
      85.0ns 1 0 0 1 0 00000000000000000000000000000000
      90.0ns 0 0 0 1 0 00000000000000000000000000000000
      95.0ns 1 0 0 1 0 00000000000000000000000000000000
     100.0ns 0 0 0 1 0 00000000000000000000000000000000
     105.0ns 1 0 0 1 0 00000000000000000000000000000000
     110.0ns 0 0 0 1 0 00000000000000000000000000000000
     115.0ns 1 0 0 1 0 00000000000000000000000000000000
     120.0ns 0 0 0 1 0 00000000000000000000000000000000
     125.0ns 1 0 0 1 0 00000000000000000000000000000000
     130.0ns 0 0 0 1 0 00000000000000000000000000000000
     135.0ns 1 0 0 1 0 00000000000000000000000000000000
     140.0ns 0 0 0 1 0 00000000000000000000000000000000
     145.0ns 1 0 0 1 0 00000000000000000000000000000000
     150.0ns 0 0 0 1 0 00000000000000000000000000000000
     155.0ns 1 0 0 1 0 00000000000000000000000000000000
     160.0ns 0 0 0 1 0 00000000000000000000000000000000
     165.0ns 1 0 0 1 0 00000000000000000000000000000000
     170.0ns 0 0 0 1 0 00000000000000000000000000000000
     175.0ns 1 0 0 1 0 00000000000000000000000000000000
     180.0ns 0 0 0 1 0 00000000000000000000000000000000
     185.0ns 1 0 0 1 0 00000000000000000000000000000000
     190.0ns 0 0 0 1 0 00000000000000000000000000000000
     195.0ns 1 0 0 1 0 00000000000000000000000000000000
     200.0ns 0 1 0 1 0 00000000000000000000000000000000
     205.0ns 1 1 0 1 0 00000000000000000000000000000000
     210.0ns 0 1 1 1 0 00000000000000000000000000000000
     215.0ns 1 1 1 1 0 00000000000000000000000000000000
     220.0ns 0 1 1 1 0 00000000000000000000000000000001
     225.0ns 1 1 1 1 0 00000000000000000000000000000001
     230.0ns 0 1 1 1 0 00000000000000000000000000000010
     235.0ns 1 1 1 1 0 00000000000000000000000000000010
     240.0ns 0 1 1 1 0 00000000000000000000000000000011
     245.0ns 1 1 1 1 0 00000000000000000000000000000011
     250.0ns 0 1 1 1 0 00000000000000000000000000000100
     255.0ns 1 1 1 1 0 00000000000000000000000000000100
     260.0ns 0 1 1 1 0 00000000000000000000000000000101
     265.0ns 1 1 1 1 0 00000000000000000000000000000101
     270.0ns 0 1 1 1 0 00000000000000000000000000000110
     275.0ns 1 1 1 1 0 00000000000000000000000000000110
     280.0ns 0 1 1 1 0 00000000000000000000000000000111
     285.0ns 1 1 1 1 0 00000000000000000000000000000111
     290.0ns 0 1 1 1 0 00000000000000000000000000001000
     295.0ns 1 1 1 1 0 00000000000000000000000000001000
     300.0ns 0 1 1 1 0 00000000000000000000000000001001
     305.0ns 1 1 1 1 0 00000000000000000000000000001001
     310.0ns 0 1 1 1 0 00000000000000000000000000001010
     315.0ns 1 1 1 1 0 00000000000000000000000000001010
     320.0ns 0 1 1 1 0 00000000000000000000000000001011
     325.0ns 1 1 1 1 0 00000000000000000000000000001011
     330.0ns 0 1 1 1 0 00000000000000000000000000001100
     335.0ns 1 1 1 1 0 00000000000000000000000000001100
     340.0ns 0 1 1 1 0 00000000000000000000000000001101
     345.0ns 1 1 1 1 0 00000000000000000000000000001101
     350.0ns 0 1 1 1 0 00000000000000000000000000001110
     355.0ns 1 1 1 1 0 00000000000000000000000000001110
     360.0ns 0 1 1 1 0 00000000000000000000000000001111
     365.0ns 1 1 1 1 0 00000000000000000000000000001111
     370.0ns 0 1 1 1 0 00000000000000000000000000010000
     375.0ns 1 1 1 1 0 00000000000000000000000000010000
     380.0ns 0 1 1 1 0 00000000000000000000000000010001
     385.0ns 1 1 1 1 0 00000000000000000000000000010001
     390.0ns 0 1 1 1 0 00000000000000000000000000010010
     395.0ns 1 1 1 1 0 00000000000000000000000000010010
     400.0ns 0 1 1 1 0 00000000000000000000000000010011
     405.0ns 1 1 1 1 0 00000000000000000000000000010011
     410.0ns 0 1 1 1 0 00000000000000000000000000010100
     415.0ns 1 1 1 1 0 00000000000000000000000000010100
     420.0ns 0 1 1 1 0 00000000000000000000000000010101
     425.0ns 1 1 1 1 0 00000000000000000000000000010101
     430.0ns 0 1 1 1 0 00000000000000000000000000010110
     435.0ns 1 1 1 1 0 00000000000000000000000000010110
     440.0ns 0 1 1 1 0 00000000000000000000000000010111
     445.0ns 1 1 1 1 0 00000000000000000000000000010111
     450.0ns 0 1 1 1 0 00000000000000000000000000011000
     455.0ns 1 1 1 1 0 00000000000000000000000000011000
     460.0ns 0 1 1 1 0 00000000000000000000000000011001
     465.0ns 1 1 1 1 0 00000000000000000000000000011001
     470.0ns 0 1 1 1 0 00000000000000000000000000011010
     475.0ns 1 1 1 1 0 00000000000000000000000000011010
     480.0ns 0 1 1 1 0 00000000000000000000000000011011
     485.0ns 1 1 1 1 0 00000000000000000000000000011011
     490.0ns 0 1 1 1 0 00000000000000000000000000011100
     495.0ns 1 1 1 1 0 00000000000000000000000000011100
     500.0ns 0 1 1 1 0 00000000000000000000000000011101
     505.0ns 1 1 1 1 0 00000000000000000000000000011101
     510.0ns 0 1 1 1 0 00000000000000000000000000011110
     515.0ns 1 1 1 1 0 00000000000000000000000000011110
     520.0ns 0 1 1 1 1 00000000000000000000000000011111
     525.0ns 1 1 1 1 1 00000000000000000000000000011111
     530.0ns 0 1 0 1 0 00000000000000000000000000011111
     535.0ns 1 1 0 1 0 00000000000000000000000000011111
     540.0ns 0 1 0 1 0 00000000000000000000000000011111
     545.0ns 1 1 0 1 0 00000000000000000000000000011111
     550.0ns 0 1 0 1 0 00000000000000000000000000011111
     555.0ns 1 1 0 1 0 00000000000000000000000000011111
     560.0ns 0 1 0 1 0 00000000000000000000000000011111
     565.0ns 1 1 0 1 0 00000000000000000000000000011111
     570.0ns 0 1 0 1 0 00000000000000000000000000011111
     575.0ns 1 1 0 1 0 00000000000000000000000000011111
     580.0ns 0 0 0 1 0 00000000000000000000000000011111
     585.0ns 1 0 0 1 0 00000000000000000000000000011111
     590.0ns 0 0 0 1 0 00000000000000000000000000011111
     595.0ns 1 0 0 1 0 00000000000000000000000000011111
     600.0ns 0 0 0 1 0 00000000000000000000000000011111
     605.0ns 1 0 0 1 0 00000000000000000000000000011111
     610.0ns 0 0 0 1 0 00000000000000000000000000011111
     615.0ns 1 0 0 1 0 00000000000000000000000000011111
     620.0ns 0 0 0 1 0 00000000000000000000000000011111
     625.0ns 1 0 0 1 0 00000000000000000000000000011111
     630.0ns 0 0 0 1 0 00000000000000000000000000011111
     635.0ns 1 0 0 1 0 00000000000000000000000000011111
     640.0ns 0 0 0 1 0 00000000000000000000000000011111
     645.0ns 1 0 0 1 0 00000000000000000000000000011111
     650.0ns 0 0 0 1 0 00000000000000000000000000011111
     655.0ns 1 0 0 1 0 00000000000000000000000000011111
     660.0ns 0 0 0 1 0 00000000000000000000000000011111
     665.0ns 1 0 0 1 0 00000000000000000000000000011111
     670.0ns 0 0 0 1 0 00000000000000000000000000011111
     675.0ns 1 0 0 1 0 00000000000000000000000000011111
     680.0ns 0 0 0 1 0 00000000000000000000000000011111
     685.0ns 1 0 0 1 0 00000000000000000000000000011111
     690.0ns 0 0 0 1 0 00000000000000000000000000011111
     695.0ns 1 0 0 1 0 00000000000000000000000000011111
     700.0ns 0 0 0 1 0 00000000000000000000000000011111
     705.0ns 1 0 0 1 0 00000000000000000000000000011111
     710.0ns 0 0 0 1 0 00000000000000000000000000011111
     715.0ns 1 0 0 1 0 00000000000000000000000000011111
     720.0ns 0 0 0 1 0 00000000000000000000000000011111
     725.0ns 1 0 0 1 0 00000000000000000000000000011111
     730.0ns 0 0 0 1 0 00000000000000000000000000011111
     735.0ns 1 0 0 1 0 00000000000000000000000000011111
     740.0ns 0 0 0 1 0 00000000000000000000000000011111
     745.0ns 1 0 0 1 0 00000000000000000000000000011111
     750.0ns 0 0 0 1 0 00000000000000000000000000011111
     755.0ns 1 0 0 1 0 00000000000000000000000000011111
     760.0ns 0 0 0 1 0 00000000000000000000000000011111
     765.0ns 1 0 0 1 0 00000000000000000000000000011111
     770.0ns 0 0 0 1 0 00000000000000000000000000011111
     775.0ns 1 0 0 1 0 00000000000000000000000000011111
     780.0ns 0 1 0 1 0 00000000000000000000000000011111
     785.0ns 1 1 0 1 0 00000000000000000000000000011111
     790.0ns 0 1 0 1 0 00000000000000000000000000011111
     795.0ns 1 1 0 1 0 00000000000000000000000000011111
     800.0ns 0 1 0 1 0 00000000000000000000000000011111
     805.0ns 1 1 0 1 0 00000000000000000000000000011111
     810.0ns 0 1 0 1 0 00000000000000000000000000011111
     815.0ns 1 1 0 1 0 00000000000000000000000000011111
     820.0ns 0 1 0 1 0 00000000000000000000000000011111
     825.0ns 1 1 0 1 0 00000000000000000000000000011111
     830.0ns 0 1 0 1 0 00000000000000000000000000011111
     835.0ns 1 1 0 1 0 00000000000000000000000000011111
     840.0ns 0 1 0 1 0 00000000000000000000000000011111
     845.0ns 1 1 0 1 0 00000000000000000000000000011111
     850.0ns 0 1 0 1 0 00000000000000000000000000011111
     855.0ns 1 1 0 1 0 00000000000000000000000000011111
     860.0ns 0 1 0 1 0 00000000000000000000000000011111
     865.0ns 1 1 0 1 0 00000000000000000000000000011111
     870.0ns 0 1 0 1 0 00000000000000000000000000011111
     875.0ns 1 1 0 1 0 00000000000000000000000000011111
     880.0ns 0 1 0 1 0 00000000000000000000000000011111
     885.0ns 1 1 0 1 0 00000000000000000000000000011111
     890.0ns 0 1 0 1 0 00000000000000000000000000011111
     895.0ns 1 1 0 1 0 00000000000000000000000000011111
     900.0ns 0 1 0 1 0 00000000000000000000000000011111
     905.0ns 1 1 0 1 0 00000000000000000000000000011111
     910.0ns 0 1 0 1 0 00000000000000000000000000011111
     915.0ns 1 1 0 1 0 00000000000000000000000000011111
     920.0ns 0 1 0 1 0 00000000000000000000000000011111
     925.0ns 1 1 0 1 0 00000000000000000000000000011111
     930.0ns 0 1 0 1 0 00000000000000000000000000011111
     935.0ns 1 1 0 1 0 00000000000000000000000000011111
     940.0ns 0 1 0 1 0 00000000000000000000000000011111
     945.0ns 1 1 0 1 0 00000000000000000000000000011111
     950.0ns 0 1 0 1 0 00000000000000000000000000011111
     955.0ns 1 1 0 1 0 00000000000000000000000000011111
     960.0ns 0 1 0 1 0 00000000000000000000000000011111
     965.0ns 1 1 0 1 0 00000000000000000000000000011111
     970.0ns 0 1 0 1 0 00000000000000000000000000011111
     975.0ns 1 1 0 1 0 00000000000000000000000000011111
     980.0ns 0 1 0 1 0 00000000000000000000000000011111
     985.0ns 1 1 0 1 0 00000000000000000000000000011111
     990.0ns 0 1 0 1 0 00000000000000000000000000011111
     995.0ns 1 1 0 1 0 00000000000000000000000000011111
    1000.0ns 0 1 0 1 0 00000000000000000000000000011111
 Time Clk Rstb Valid Ready Last Data
       0.0ns 0 0 0 1 0 00000000000000000000000000000000
       5.0ns 1 0 0 1 0 00000000000000000000000000000000
      10.0ns 0 0 0 1 0 00000000000000000000000000000000
      15.0ns 1 0 0 1 0 00000000000000000000000000000000
      20.0ns 0 0 0 1 0 00000000000000000000000000000000
      25.0ns 1 0 0 1 0 00000000000000000000000000000000
      30.0ns 0 0 0 1 0 00000000000000000000000000000000
      35.0ns 1 0 0 1 0 00000000000000000000000000000000
      40.0ns 0 0 0 1 0 00000000000000000000000000000000
      45.0ns 1 0 0 1 0 00000000000000000000000000000000
      50.0ns 0 0 0 1 0 00000000000000000000000000000000
      55.0ns 1 0 0 1 0 00000000000000000000000000000000
      60.0ns 0 0 0 1 0 00000000000000000000000000000000
      65.0ns 1 0 0 1 0 00000000000000000000000000000000
      70.0ns 0 0 0 1 0 00000000000000000000000000000000
      75.0ns 1 0 0 1 0 00000000000000000000000000000000
      80.0ns 0 0 0 1 0 00000000000000000000000000000000
      85.0ns 1 0 0 1 0 00000000000000000000000000000000
      90.0ns 0 0 0 1 0 00000000000000000000000000000000
      95.0ns 1 0 0 1 0 00000000000000000000000000000000
     100.0ns 0 0 0 1 0 00000000000000000000000000000000
     105.0ns 1 0 0 1 0 00000000000000000000000000000000
     110.0ns 0 0 0 1 0 00000000000000000000000000000000
     115.0ns 1 0 0 1 0 00000000000000000000000000000000
     120.0ns 0 0 0 1 0 00000000000000000000000000000000
     125.0ns 1 0 0 1 0 00000000000000000000000000000000
     130.0ns 0 0 0 1 0 00000000000000000000000000000000
     135.0ns 1 0 0 1 0 00000000000000000000000000000000
     140.0ns 0 0 0 1 0 00000000000000000000000000000000
     145.0ns 1 0 0 1 0 00000000000000000000000000000000
     150.0ns 0 0 0 1 0 00000000000000000000000000000000
     155.0ns 1 0 0 1 0 00000000000000000000000000000000
     160.0ns 0 0 0 1 0 00000000000000000000000000000000
     165.0ns 1 0 0 1 0 00000000000000000000000000000000
     170.0ns 0 0 0 1 0 00000000000000000000000000000000
     175.0ns 1 0 0 1 0 00000000000000000000000000000000
     180.0ns 0 0 0 1 0 00000000000000000000000000000000
     185.0ns 1 0 0 1 0 00000000000000000000000000000000
     190.0ns 0 0 0 1 0 00000000000000000000000000000000
     195.0ns 1 0 0 1 0 00000000000000000000000000000000
     200.0ns 0 1 0 1 0 00000000000000000000000000000000
     205.0ns 1 1 0 1 0 00000000000000000000000000000000
     210.0ns 0 1 1 1 0 00000000000000000000000000000000
     215.0ns 1 1 1 1 0 00000000000000000000000000000000
     220.0ns 0 1 1 1 0 00000000000000000000000000000001
     225.0ns 1 1 1 1 0 00000000000000000000000000000001
     230.0ns 0 1 1 1 0 00000000000000000000000000000010
     235.0ns 1 1 1 1 0 00000000000000000000000000000010
     240.0ns 0 1 1 1 0 00000000000000000000000000000011
     245.0ns 1 1 1 1 0 00000000000000000000000000000011
     250.0ns 0 1 1 1 0 00000000000000000000000000000100
     255.0ns 1 1 1 1 0 00000000000000000000000000000100
     260.0ns 0 1 1 1 0 00000000000000000000000000000101
     265.0ns 1 1 1 1 0 00000000000000000000000000000101
     270.0ns 0 1 1 1 0 00000000000000000000000000000110
     275.0ns 1 1 1 1 0 00000000000000000000000000000110
     280.0ns 0 1 1 1 0 00000000000000000000000000000111
     285.0ns 1 1 1 1 0 00000000000000000000000000000111
     290.0ns 0 1 1 1 0 00000000000000000000000000001000
     295.0ns 1 1 1 1 0 00000000000000000000000000001000
     300.0ns 0 1 1 1 0 00000000000000000000000000001001
     305.0ns 1 1 1 1 0 00000000000000000000000000001001
     310.0ns 0 1 1 1 0 00000000000000000000000000001010
     315.0ns 1 1 1 1 0 00000000000000000000000000001010
     320.0ns 0 1 1 1 0 00000000000000000000000000001011
     325.0ns 1 1 1 1 0 00000000000000000000000000001011
     330.0ns 0 1 1 1 0 00000000000000000000000000001100
     335.0ns 1 1 1 1 0 00000000000000000000000000001100
     340.0ns 0 1 1 1 0 00000000000000000000000000001101
     345.0ns 1 1 1 1 0 00000000000000000000000000001101
     350.0ns 0 1 1 1 0 00000000000000000000000000001110
     355.0ns 1 1 1 1 0 00000000000000000000000000001110
     360.0ns 0 1 1 1 0 00000000000000000000000000001111
     365.0ns 1 1 1 1 0 00000000000000000000000000001111
     370.0ns 0 1 1 1 0 00000000000000000000000000010000
     375.0ns 1 1 1 1 0 00000000000000000000000000010000
     380.0ns 0 1 1 1 0 00000000000000000000000000010001
     385.0ns 1 1 1 1 0 00000000000000000000000000010001
     390.0ns 0 1 1 1 0 00000000000000000000000000010010
     395.0ns 1 1 1 1 0 00000000000000000000000000010010
     400.0ns 0 1 1 1 0 00000000000000000000000000010011
     405.0ns 1 1 1 1 0 00000000000000000000000000010011
     410.0ns 0 1 1 1 0 00000000000000000000000000010100
     415.0ns 1 1 1 1 0 00000000000000000000000000010100
     420.0ns 0 1 1 1 0 00000000000000000000000000010101
     425.0ns 1 1 1 1 0 00000000000000000000000000010101
     430.0ns 0 1 1 1 0 00000000000000000000000000010110
     435.0ns 1 1 1 1 0 00000000000000000000000000010110
     440.0ns 0 1 1 1 0 00000000000000000000000000010111
     445.0ns 1 1 1 1 0 00000000000000000000000000010111
     450.0ns 0 1 1 1 0 00000000000000000000000000011000
     455.0ns 1 1 1 1 0 00000000000000000000000000011000
     460.0ns 0 1 1 1 0 00000000000000000000000000011001
     465.0ns 1 1 1 1 0 00000000000000000000000000011001
     470.0ns 0 1 1 1 0 00000000000000000000000000011010
     475.0ns 1 1 1 1 0 00000000000000000000000000011010
     480.0ns 0 1 1 1 0 00000000000000000000000000011011
     485.0ns 1 1 1 1 0 00000000000000000000000000011011
     490.0ns 0 1 1 1 0 00000000000000000000000000011100
     495.0ns 1 1 1 1 0 00000000000000000000000000011100
     500.0ns 0 1 1 1 0 00000000000000000000000000011101
     505.0ns 1 1 1 1 0 00000000000000000000000000011101
     510.0ns 0 1 1 1 0 00000000000000000000000000011110
     515.0ns 1 1 1 1 0 00000000000000000000000000011110
     520.0ns 0 1 1 1 1 00000000000000000000000000011111
     525.0ns 1 1 1 1 1 00000000000000000000000000011111
     530.0ns 0 1 0 1 0 00000000000000000000000000011111
     535.0ns 1 1 0 1 0 00000000000000000000000000011111
     540.0ns 0 1 0 1 0 00000000000000000000000000011111
     545.0ns 1 1 0 1 0 00000000000000000000000000011111
     550.0ns 0 1 0 1 0 00000000000000000000000000011111
     555.0ns 1 1 0 1 0 00000000000000000000000000011111
     560.0ns 0 1 0 1 0 00000000000000000000000000011111
     565.0ns 1 1 0 1 0 00000000000000000000000000011111
     570.0ns 0 1 0 1 0 00000000000000000000000000011111
     575.0ns 1 1 0 1 0 00000000000000000000000000011111
     580.0ns 0 0 0 1 0 00000000000000000000000000011111
     585.0ns 1 0 0 1 0 00000000000000000000000000011111
     590.0ns 0 0 0 1 0 00000000000000000000000000011111
     595.0ns 1 0 0 1 0 00000000000000000000000000011111
     600.0ns 0 0 0 1 0 00000000000000000000000000011111
     605.0ns 1 0 0 1 0 00000000000000000000000000011111
     610.0ns 0 0 0 1 0 00000000000000000000000000011111
     615.0ns 1 0 0 1 0 00000000000000000000000000011111
     620.0ns 0 0 0 1 0 00000000000000000000000000011111
     625.0ns 1 0 0 1 0 00000000000000000000000000011111
     630.0ns 0 0 0 1 0 00000000000000000000000000011111
     635.0ns 1 0 0 1 0 00000000000000000000000000011111
     640.0ns 0 0 0 1 0 00000000000000000000000000011111
     645.0ns 1 0 0 1 0 00000000000000000000000000011111
     650.0ns 0 0 0 1 0 00000000000000000000000000011111
     655.0ns 1 0 0 1 0 00000000000000000000000000011111
     660.0ns 0 0 0 1 0 00000000000000000000000000011111
     665.0ns 1 0 0 1 0 00000000000000000000000000011111
     670.0ns 0 0 0 1 0 00000000000000000000000000011111
     675.0ns 1 0 0 1 0 00000000000000000000000000011111
     680.0ns 0 0 0 1 0 00000000000000000000000000011111
     685.0ns 1 0 0 1 0 00000000000000000000000000011111
     690.0ns 0 0 0 1 0 00000000000000000000000000011111
     695.0ns 1 0 0 1 0 00000000000000000000000000011111
     700.0ns 0 0 0 1 0 00000000000000000000000000011111
     705.0ns 1 0 0 1 0 00000000000000000000000000011111
     710.0ns 0 0 0 1 0 00000000000000000000000000011111
     715.0ns 1 0 0 1 0 00000000000000000000000000011111
     720.0ns 0 0 0 1 0 00000000000000000000000000011111
     725.0ns 1 0 0 1 0 00000000000000000000000000011111
     730.0ns 0 0 0 1 0 00000000000000000000000000011111
     735.0ns 1 0 0 1 0 00000000000000000000000000011111
     740.0ns 0 0 0 1 0 00000000000000000000000000011111
     745.0ns 1 0 0 1 0 00000000000000000000000000011111
     750.0ns 0 0 0 1 0 00000000000000000000000000011111
     755.0ns 1 0 0 1 0 00000000000000000000000000011111
     760.0ns 0 0 0 1 0 00000000000000000000000000011111
     765.0ns 1 0 0 1 0 00000000000000000000000000011111
     770.0ns 0 0 0 1 0 00000000000000000000000000011111
     775.0ns 1 0 0 1 0 00000000000000000000000000011111
     780.0ns 0 1 0 1 0 00000000000000000000000000011111
     785.0ns 1 1 0 1 0 00000000000000000000000000011111
     790.0ns 0 1 0 1 0 00000000000000000000000000011111
     795.0ns 1 1 0 1 0 00000000000000000000000000011111
     800.0ns 0 1 0 1 0 00000000000000000000000000011111
     805.0ns 1 1 0 1 0 00000000000000000000000000011111
     810.0ns 0 1 0 1 0 00000000000000000000000000011111
     815.0ns 1 1 0 1 0 00000000000000000000000000011111
     820.0ns 0 1 0 1 0 00000000000000000000000000011111
     825.0ns 1 1 0 1 0 00000000000000000000000000011111
     830.0ns 0 1 0 1 0 00000000000000000000000000011111
     835.0ns 1 1 0 1 0 00000000000000000000000000011111
     840.0ns 0 1 0 1 0 00000000000000000000000000011111
     845.0ns 1 1 0 1 0 00000000000000000000000000011111
     850.0ns 0 1 0 1 0 00000000000000000000000000011111
     855.0ns 1 1 0 1 0 00000000000000000000000000011111
     860.0ns 0 1 0 1 0 00000000000000000000000000011111
     865.0ns 1 1 0 1 0 00000000000000000000000000011111
     870.0ns 0 1 0 1 0 00000000000000000000000000011111
     875.0ns 1 1 0 1 0 00000000000000000000000000011111
     880.0ns 0 1 0 1 0 00000000000000000000000000011111
     885.0ns 1 1 0 1 0 00000000000000000000000000011111
     890.0ns 0 1 0 1 0 00000000000000000000000000011111
     895.0ns 1 1 0 1 0 00000000000000000000000000011111
     900.0ns 0 1 0 1 0 00000000000000000000000000011111
     905.0ns 1 1 0 1 0 00000000000000000000000000011111
     910.0ns 0 1 0 1 0 00000000000000000000000000011111
     915.0ns 1 1 0 1 0 00000000000000000000000000011111
     920.0ns 0 1 0 1 0 00000000000000000000000000011111
     925.0ns 1 1 0 1 0 00000000000000000000000000011111
     930.0ns 0 1 0 1 0 00000000000000000000000000011111
     935.0ns 1 1 0 1 0 00000000000000000000000000011111
     940.0ns 0 1 0 1 0 00000000000000000000000000011111
     945.0ns 1 1 0 1 0 00000000000000000000000000011111
     950.0ns 0 1 0 1 0 00000000000000000000000000011111
     955.0ns 1 1 0 1 0 00000000000000000000000000011111
     960.0ns 0 1 0 1 0 00000000000000000000000000011111
     965.0ns 1 1 0 1 0 00000000000000000000000000011111
     970.0ns 0 1 0 1 0 00000000000000000000000000011111
     975.0ns 1 1 0 1 0 00000000000000000000000000011111
     980.0ns 0 1 0 1 0 00000000000000000000000000011111
     985.0ns 1 1 0 1 0 00000000000000000000000000011111
     990.0ns 0 1 0 1 0 00000000000000000000000000011111
     995.0ns 1 1 0 1 0 00000000000000000000000000011111
    1000.0ns 0 1 0 1 0 00000000000000000000000000011111
    1005.0ns 1 1 0 1 0 00000000000000000000000000011111
    1010.0ns 0 1 0 1 0 00000000000000000000000000011111
    1015.0ns 1 1 0 1 0 00000000000000000000000000011111
    1020.0ns 0 1 0 1 0 00000000000000000000000000011111
    1025.0ns 1 1 0 1 0 00000000000000000000000000011111
    1030.0ns 0 1 0 1 0 00000000000000000000000000011111
    1035.0ns 1 1 0 1 0 00000000000000000000000000011111
    1040.0ns 0 1 0 1 0 00000000000000000000000000011111
    1045.0ns 1 1 0 1 0 00000000000000000000000000011111
    1050.0ns 0 1 0 1 0 00000000000000000000000000011111
    1055.0ns 1 1 0 1 0 00000000000000000000000000011111
    1060.0ns 0 1 0 1 0 00000000000000000000000000011111
    1065.0ns 1 1 0 1 0 00000000000000000000000000011111
    1070.0ns 0 1 0 1 0 00000000000000000000000000011111
    1075.0ns 1 1 0 1 0 00000000000000000000000000011111
    1080.0ns 0 1 0 1 0 00000000000000000000000000011111
    1085.0ns 1 1 0 1 0 00000000000000000000000000011111
    1090.0ns 0 1 0 1 0 00000000000000000000000000011111
    1095.0ns 1 1 0 1 0 00000000000000000000000000011111
    1100.0ns 0 1 0 1 0 00000000000000000000000000011111
    1105.0ns 1 1 0 1 0 00000000000000000000000000011111
    1110.0ns 0 1 0 1 0 00000000000000000000000000011111
    1115.0ns 1 1 0 1 0 00000000000000000000000000011111
    1120.0ns 0 1 0 1 0 00000000000000000000000000011111
    1125.0ns 1 1 0 1 0 00000000000000000000000000011111
    1130.0ns 0 1 0 1 0 00000000000000000000000000011111
    1135.0ns 1 1 0 1 0 00000000000000000000000000011111
    1140.0ns 0 1 0 1 0 00000000000000000000000000011111
    1145.0ns 1 1 0 1 0 00000000000000000000000000011111
    1150.0ns 0 1 0 1 0 00000000000000000000000000011111
    1155.0ns 1 1 0 1 0 00000000000000000000000000011111
    1160.0ns 0 1 0 1 0 00000000000000000000000000011111
    1165.0ns 1 1 0 1 0 00000000000000000000000000011111
    1170.0ns 0 1 0 1 0 00000000000000000000000000011111
    1175.0ns 1 1 0 1 0 00000000000000000000000000011111
    1180.0ns 0 1 0 1 0 00000000000000000000000000011111
    1185.0ns 1 1 0 1 0 00000000000000000000000000011111
    1190.0ns 0 1 0 1 0 00000000000000000000000000011111
    1195.0ns 1 1 0 1 0 00000000000000000000000000011111
    1200.0ns 0 1 0 1 0 00000000000000000000000000011111
    1205.0ns 1 1 0 1 0 00000000000000000000000000011111
    1210.0ns 0 1 0 1 0 00000000000000000000000000011111
    1215.0ns 1 1 0 1 0 00000000000000000000000000011111
    1220.0ns 0 1 0 1 0 00000000000000000000000000011111
    1225.0ns 1 1 0 1 0 00000000000000000000000000011111
    1230.0ns 0 1 0 1 0 00000000000000000000000000011111
    1235.0ns 1 1 0 1 0 00000000000000000000000000011111
    1240.0ns 0 1 0 1 0 00000000000000000000000000011111
    1245.0ns 1 1 0 1 0 00000000000000000000000000011111
    1250.0ns 0 1 0 1 0 00000000000000000000000000011111
    1255.0ns 1 1 0 1 0 00000000000000000000000000011111
    1260.0ns 0 1 0 1 0 00000000000000000000000000011111
    1265.0ns 1 1 0 1 0 00000000000000000000000000011111
    1270.0ns 0 1 0 1 0 00000000000000000000000000011111
    1275.0ns 1 1 0 1 0 00000000000000000000000000011111
    1280.0ns 0 1 0 1 0 00000000000000000000000000011111
    1285.0ns 1 1 0 1 0 00000000000000000000000000011111
    1290.0ns 0 1 0 1 0 00000000000000000000000000011111
    1295.0ns 1 1 0 1 0 00000000000000000000000000011111
    1300.0ns 0 1 0 1 0 00000000000000000000000000011111
    1305.0ns 1 1 0 1 0 00000000000000000000000000011111
    1310.0ns 0 1 0 1 0 00000000000000000000000000011111
    1315.0ns 1 1 0 1 0 00000000000000000000000000011111
    1320.0ns 0 1 0 1 0 00000000000000000000000000011111
    1325.0ns 1 1 0 1 0 00000000000000000000000000011111
    1330.0ns 0 1 0 1 0 00000000000000000000000000011111
    1335.0ns 1 1 0 1 0 00000000000000000000000000011111
    1340.0ns 0 1 0 1 0 00000000000000000000000000011111
    1345.0ns 1 1 0 1 0 00000000000000000000000000011111
    1350.0ns 0 1 0 1 0 00000000000000000000000000011111
    1355.0ns 1 1 0 1 0 00000000000000000000000000011111
    1360.0ns 0 1 0 1 0 00000000000000000000000000011111
    1365.0ns 1 1 0 1 0 00000000000000000000000000011111
    1370.0ns 0 1 0 1 0 00000000000000000000000000011111
    1375.0ns 1 1 0 1 0 00000000000000000000000000011111
    1380.0ns 0 1 0 1 0 00000000000000000000000000011111
    1385.0ns 1 1 0 1 0 00000000000000000000000000011111
    1390.0ns 0 1 0 1 0 00000000000000000000000000011111
    1395.0ns 1 1 0 1 0 00000000000000000000000000011111
    1400.0ns 0 1 0 1 0 00000000000000000000000000011111
    1405.0ns 1 1 0 1 0 00000000000000000000000000011111
    1410.0ns 0 1 0 1 0 00000000000000000000000000011111
    1415.0ns 1 1 0 1 0 00000000000000000000000000011111
    1420.0ns 0 1 0 1 0 00000000000000000000000000011111
    1425.0ns 1 1 0 1 0 00000000000000000000000000011111
    1430.0ns 0 1 0 1 0 00000000000000000000000000011111
    1435.0ns 1 1 0 1 0 00000000000000000000000000011111
    1440.0ns 0 1 0 1 0 00000000000000000000000000011111
    1445.0ns 1 1 0 1 0 00000000000000000000000000011111
    1450.0ns 0 1 0 1 0 00000000000000000000000000011111
    1455.0ns 1 1 0 1 0 00000000000000000000000000011111
    1460.0ns 0 1 0 1 0 00000000000000000000000000011111
    1465.0ns 1 1 0 1 0 00000000000000000000000000011111
    1470.0ns 0 1 0 1 0 00000000000000000000000000011111
    1475.0ns 1 1 0 1 0 00000000000000000000000000011111
    1480.0ns 0 1 0 1 0 00000000000000000000000000011111
    1485.0ns 1 1 0 1 0 00000000000000000000000000011111
    1490.0ns 0 1 0 1 0 00000000000000000000000000011111
    1495.0ns 1 1 0 1 0 00000000000000000000000000011111
    1500.0ns 0 1 0 1 0 00000000000000000000000000011111
    1505.0ns 1 1 0 1 0 00000000000000000000000000011111
    1510.0ns 0 1 0 1 0 00000000000000000000000000011111
    1515.0ns 1 1 0 1 0 00000000000000000000000000011111
    1520.0ns 0 1 0 1 0 00000000000000000000000000011111
    1525.0ns 1 1 0 1 0 00000000000000000000000000011111
    1530.0ns 0 1 0 1 0 00000000000000000000000000011111
    1535.0ns 1 1 0 1 0 00000000000000000000000000011111
